

 NAS Parallel Benchmarks 3.4 -- IS Benchmark

 Size:  2147483648  (class D)
 Iterations:   10
 Number of processes:     16
[PI-INFO] Init time,9,24.153910
[PI-INFO] Init time,10,24.169328
[PI-INFO] Init time,6,24.169500
[PI-INFO] Init time,8,24.178330
[PI-INFO] Init time,7,24.181365
[PI-INFO] Init time,5,24.190305
[PI-INFO] Init time,11,24.203328
[PI-INFO] Init time,2,24.230096
[PI-INFO] Init time,4,24.237363
[PI-INFO] Init time,12,24.259967
[PI-INFO] Init time,1,24.280260
[PI-INFO] Init time,13,24.292954
[PI-INFO] Init time,14,24.295806
[PI-INFO] Init time,3,24.322104
[PI-INFO] Init time,15,24.566172

   iteration
[PI-INFO] Init time,0,24.583068
        1
[PI-INFO] Paramount Iteration,6,1,28.649692,4.480192
[RU-INFO] Resources Stats,6,1,24.203139,4.023192,1573368,0,0,0,2492,0,0,0,0,0,0,0,2264,615
[NT-INFO] Network Stats,6,1,ens4,62026810152,2306571,0,0,0,0,0,0,61602535429,2299045,0,0,0,0,0,0
[NT-INFO] Network Stats,6,1,lo,255996,1295,0,0,0,0,0,0,255996,1295,0,0,0,0,0,0
[PI-INFO] Paramount Iteration,5,1,28.660399,4.470094
[RU-INFO] Resources Stats,5,1,24.155754,4.083958,1591732,0,0,0,2505,0,0,0,0,0,0,0,2226,542
[NT-INFO] Network Stats,5,1,ens4,62026810416,2306575,0,0,0,0,0,0,61602564720,2299049,0,0,0,0,0,0
[NT-INFO] Network Stats,5,1,lo,255996,1295,0,0,0,0,0,0,255996,1295,0,0,0,0,0,0
[PI-INFO] Paramount Iteration,9,1,28.675632,4.521722
[RU-INFO] Resources Stats,9,1,24.006282,4.247696,1573364,0,0,0,2485,0,0,0,0,0,0,0,2205,569
[NT-INFO] Network Stats,9,1,ens4,62042362057,2309116,0,0,0,0,0,0,61556489797,2323490,0,0,0,0,0,0
[NT-INFO] Network Stats,9,1,lo,254696,1270,0,0,0,0,0,0,254696,1270,0,0,0,0,0,0
[PI-INFO] Paramount Iteration,7,1,28.678848,4.497483
[RU-INFO] Resources Stats,7,1,24.029160,4.218799,1585744,0,0,0,2501,0,0,0,0,0,0,0,2171,596
[NT-INFO] Network Stats,7,1,ens4,62026810680,2306579,0,0,0,0,0,0,61602565483,2299053,0,0,0,0,0,0
[NT-INFO] Network Stats,7,1,lo,255996,1295,0,0,0,0,0,0,255996,1295,0,0,0,0,0,0
[PI-INFO] Paramount Iteration,10,1,28.689014,4.519686
[RU-INFO] Resources Stats,10,1,24.184234,4.084039,1588056,0,0,0,2511,0,0,0,0,0,0,0,2195,551
[NT-INFO] Network Stats,10,1,ens4,62042362189,2309118,0,0,0,0,0,0,61556670916,2323496,0,0,0,0,0,0
[NT-INFO] Network Stats,10,1,lo,254696,1270,0,0,0,0,0,0,254696,1270,0,0,0,0,0,0
[PI-INFO] Paramount Iteration,8,1,28.699521,4.521191
[RU-INFO] Resources Stats,8,1,23.985241,4.286077,1608208,0,0,0,2506,1,0,72,0,0,0,0,2227,744
[NT-INFO] Network Stats,8,1,ens4,62042362321,2309120,0,0,0,0,0,0,61556797994,2323502,0,0,0,0,0,0
[NT-INFO] Network Stats,8,1,lo,254696,1270,0,0,0,0,0,0,254696,1270,0,0,0,0,0,0
[PI-INFO] Paramount Iteration,4,1,28.711257,4.473894
[RU-INFO] Resources Stats,4,1,24.042729,4.238365,1604112,0,0,0,2499,1,0,72,0,0,0,0,2244,629
[NT-INFO] Network Stats,4,1,ens4,62026810944,2306583,0,0,0,0,0,0,61602576038,2299057,0,0,0,0,0,0
[NT-INFO] Network Stats,4,1,lo,255996,1295,0,0,0,0,0,0,255996,1295,0,0,0,0,0,0
[PI-INFO] Paramount Iteration,11,1,28.718672,4.515344
[RU-INFO] Resources Stats,11,1,24.069386,4.218840,1604068,0,0,0,2524,0,0,0,0,0,0,0,2212,537
[NT-INFO] Network Stats,11,1,ens4,62042362453,2309122,0,0,0,0,0,0,61556855144,2323507,0,0,0,0,0,0
[NT-INFO] Network Stats,11,1,lo,254696,1270,0,0,0,0,0,0,254696,1270,0,0,0,0,0,0
[PI-INFO] Paramount Iteration,2,1,28.736999,4.506903
[RU-INFO] Resources Stats,2,1,24.240291,4.071377,1579636,0,0,0,2507,0,0,0,0,0,0,0,2171,692
[NT-INFO] Network Stats,2,1,ens4,61869682062,2439586,0,0,0,0,0,0,62295811351,2368802,0,0,0,0,0,0
[NT-INFO] Network Stats,2,1,lo,250296,1206,0,0,0,0,0,0,250296,1206,0,0,0,0,0,0
[PI-INFO] Paramount Iteration,12,1,28.762067,4.502100
[RU-INFO] Resources Stats,12,1,24.150811,4.183794,1587872,0,0,0,2495,1,0,72,0,0,0,0,2130,719
[NT-INFO] Network Stats,12,1,ens4,61934211267,2417211,0,0,0,0,0,0,61712062512,2247697,0,0,0,0,0,0
[NT-INFO] Network Stats,12,1,lo,254124,1259,0,0,0,0,0,0,254124,1259,0,0,0,0,0,0
[PI-INFO] Paramount Iteration,1,1,28.777647,4.497387
[RU-INFO] Resources Stats,1,1,24.350588,3.983114,1595908,0,0,0,2510,0,0,0,0,0,0,0,2126,699
[NT-INFO] Network Stats,1,1,ens4,61869682995,2439590,0,0,0,0,0,0,62295811681,2368807,0,0,0,0,0,0
[NT-INFO] Network Stats,1,1,lo,250296,1206,0,0,0,0,0,0,250296,1206,0,0,0,0,0,0
[PI-INFO] Paramount Iteration,14,1,28.792618,4.496812
[RU-INFO] Resources Stats,14,1,24.298585,4.063094,1589696,0,0,0,2506,0,0,0,0,0,0,0,2144,884
[NT-INFO] Network Stats,14,1,ens4,61934211531,2417215,0,0,0,0,0,0,61712387383,2247705,0,0,0,0,0,0
[NT-INFO] Network Stats,14,1,lo,254124,1259,0,0,0,0,0,0,254124,1259,0,0,0,0,0,0
[PI-INFO] Paramount Iteration,13,1,28.795773,4.502819
[RU-INFO] Resources Stats,13,1,24.405431,3.927724,1577548,0,0,0,2495,0,0,0,0,0,0,0,2143,511
[NT-INFO] Network Stats,13,1,ens4,61934211795,2417219,0,0,0,0,0,0,61712674385,2247713,0,0,0,0,0,0
[NT-INFO] Network Stats,13,1,lo,254124,1259,0,0,0,0,0,0,254124,1259,0,0,0,0,0,0
[PI-INFO] Paramount Iteration,3,1,28.806847,4.484743
[RU-INFO] Resources Stats,3,1,24.425566,3.954958,1589828,0,0,0,2501,0,0,0,0,0,0,0,2145,533
[NT-INFO] Network Stats,3,1,ens4,61869684859,2439598,0,0,0,0,0,0,62295812209,2368815,0,0,0,0,0,0
[NT-INFO] Network Stats,3,1,lo,250296,1206,0,0,0,0,0,0,250296,1206,0,0,0,0,0,0
[PI-INFO] Paramount Iteration,15,1,29.039641,4.473469
[RU-INFO] Resources Stats,15,1,24.806395,3.801593,1585664,0,0,0,2503,0,0,0,0,0,0,0,2161,575
[NT-INFO] Network Stats,15,1,ens4,61934212125,2417224,0,0,0,0,0,0,61712738743,2247718,0,0,0,0,0,0
[NT-INFO] Network Stats,15,1,lo,254124,1259,0,0,0,0,0,0,254124,1259,0,0,0,0,0,0
[PI-INFO] Paramount Iteration,0,1,29.058096,4.475028
[RU-INFO] Resources Stats,0,1,24.761075,3.866918,1594016,0,0,0,2499,1,0,72,0,0,0,0,2143,776
[NT-INFO] Network Stats,0,1,ens4,61869685791,2439602,0,0,0,0,0,0,62295812473,2368819,0,0,0,0,0,0
[NT-INFO] Network Stats,0,1,lo,250296,1206,0,0,0,0,0,0,250296,1206,0,0,0,0,0,0
        2
[PI-INFO] Paramount Iteration,6,2,32.880275,4.230583
[RU-INFO] Resources Stats,6,2,26.553253,5.898501,1573368,0,0,0,2496,0,0,0,0,0,0,0,2264,867
[NT-INFO] Network Stats,6,2,ens4,63677370930,2378035,0,0,0,0,0,0,63243926678,2366554,0,0,0,0,0,0
[NT-INFO] Network Stats,6,2,lo,255996,1295,0,0,0,0,0,0,255996,1295,0,0,0,0,0,0
[PI-INFO] Paramount Iteration,9,2,32.898456,4.222824
[RU-INFO] Resources Stats,9,2,26.236130,6.235080,1573364,0,0,0,2489,0,0,0,0,0,0,0,2205,788
[NT-INFO] Network Stats,9,2,ens4,63695431083,2385926,0,0,0,0,0,0,63195392854,2388389,0,0,0,0,0,0
[NT-INFO] Network Stats,9,2,lo,254696,1270,0,0,0,0,0,0,254696,1270,0,0,0,0,0,0
[PI-INFO] Paramount Iteration,2,2,32.900599,4.163600
[RU-INFO] Resources Stats,2,2,26.602784,5.866849,1579636,0,0,0,2509,0,0,0,0,0,0,0,2171,919
[NT-INFO] Network Stats,2,2,ens4,63509460073,2509398,0,0,0,0,0,0,63930450687,2431425,0,0,0,0,0,0
[NT-INFO] Network Stats,2,2,lo,250296,1206,0,0,0,0,0,0,250296,1206,0,0,0,0,0,0
[PI-INFO] Paramount Iteration,7,2,32.911047,4.232199
[RU-INFO] Resources Stats,7,2,26.235580,6.237047,1585744,0,0,0,2502,0,0,0,0,0,0,0,2171,761
[NT-INFO] Network Stats,7,2,ens4,63677370996,2378036,0,0,0,0,0,0,63243926810,2366556,0,0,0,0,0,0
[NT-INFO] Network Stats,7,2,lo,255996,1295,0,0,0,0,0,0,255996,1295,0,0,0,0,0,0
[PI-INFO] Paramount Iteration,10,2,32.915140,4.226126
[RU-INFO] Resources Stats,10,2,26.469961,6.019536,1588056,0,0,0,2521,0,0,0,0,0,0,0,2195,783
[NT-INFO] Network Stats,10,2,ens4,63695431149,2385927,0,0,0,0,0,0,63195587356,2388392,0,0,0,0,0,0
[NT-INFO] Network Stats,10,2,lo,254696,1270,0,0,0,0,0,0,254696,1270,0,0,0,0,0,0
[PI-INFO] Paramount Iteration,5,2,32.918744,4.258345
[RU-INFO] Resources Stats,5,2,26.544813,5.946390,1591732,0,0,0,2509,0,0,0,0,0,0,0,2226,791
[NT-INFO] Network Stats,5,2,ens4,63677371260,2378040,0,0,0,0,0,0,63243927979,2366560,0,0,0,0,0,0
[NT-INFO] Network Stats,5,2,lo,255996,1295,0,0,0,0,0,0,255996,1295,0,0,0,0,0,0
[PI-INFO] Paramount Iteration,4,2,32.929552,4.218295
[RU-INFO] Resources Stats,4,2,26.379829,6.113179,1604112,0,0,0,2500,1,0,72,0,0,0,0,2244,890
[NT-INFO] Network Stats,4,2,ens4,63677371524,2378044,0,0,0,0,0,0,63243928742,2366564,0,0,0,0,0,0
[NT-INFO] Network Stats,4,2,lo,255996,1295,0,0,0,0,0,0,255996,1295,0,0,0,0,0,0
[PI-INFO] Paramount Iteration,8,2,32.930156,4.230635
[RU-INFO] Resources Stats,8,2,26.272647,6.220365,1608208,0,0,0,2513,1,0,72,0,0,0,0,2227,1027
[NT-INFO] Network Stats,8,2,ens4,63695431413,2385931,0,0,0,0,0,0,63195714368,2388397,0,0,0,0,0,0
[NT-INFO] Network Stats,8,2,lo,254696,1270,0,0,0,0,0,0,254696,1270,0,0,0,0,0,0
[PI-INFO] Paramount Iteration,11,2,32.932188,4.213516
[RU-INFO] Resources Stats,11,2,26.323407,6.173984,1604068,0,0,0,2524,0,0,0,0,0,0,0,2212,730
[NT-INFO] Network Stats,11,2,ens4,63695431677,2385935,0,0,0,0,0,0,63195715539,2388401,0,0,0,0,0,0
[NT-INFO] Network Stats,11,2,lo,254696,1270,0,0,0,0,0,0,254696,1270,0,0,0,0,0,0
[PI-INFO] Paramount Iteration,1,2,32.938851,4.161204
[RU-INFO] Resources Stats,1,2,26.793177,5.694550,1595908,0,0,0,2516,0,0,0,0,0,0,0,2126,865
[NT-INFO] Network Stats,1,2,ens4,63509465652,2509422,0,0,0,0,0,0,63930452205,2431448,0,0,0,0,0,0
[NT-INFO] Network Stats,1,2,lo,250296,1206,0,0,0,0,0,0,250296,1206,0,0,0,0,0,0
[PI-INFO] Paramount Iteration,12,2,32.959054,4.196987
[RU-INFO] Resources Stats,12,2,26.428818,6.093422,1587872,0,0,0,2498,1,0,72,0,0,0,0,2130,1007
[NT-INFO] Network Stats,12,2,ens4,63564129559,2491962,0,0,0,0,0,0,63367584565,2312998,0,0,0,0,0,0
[NT-INFO] Network Stats,12,2,lo,254124,1259,0,0,0,0,0,0,254124,1259,0,0,0,0,0,0
[PI-INFO] Paramount Iteration,3,2,32.956303,4.149456
[RU-INFO] Resources Stats,3,2,26.788868,5.734473,1589828,0,0,0,2506,0,0,0,0,0,0,0,2145,757
[NT-INFO] Network Stats,3,2,ens4,63509466130,2509423,0,0,0,0,0,0,63930452271,2431449,0,0,0,0,0,0
[NT-INFO] Network Stats,3,2,lo,250296,1206,0,0,0,0,0,0,250296,1206,0,0,0,0,0,0
[PI-INFO] Paramount Iteration,14,2,32.959267,4.166649
[RU-INFO] Resources Stats,14,2,26.619509,5.903004,1589696,0,0,0,2510,0,0,0,0,0,0,0,2144,1100
[NT-INFO] Network Stats,14,2,ens4,63564129625,2491963,0,0,0,0,0,0,63367584631,2312999,0,0,0,0,0,0
[NT-INFO] Network Stats,14,2,lo,254124,1259,0,0,0,0,0,0,254124,1259,0,0,0,0,0,0
[PI-INFO] Paramount Iteration,13,2,32.983603,4.187830
[RU-INFO] Resources Stats,13,2,26.825365,5.680665,1577548,0,0,0,2496,0,0,0,0,0,0,0,2143,698
[NT-INFO] Network Stats,13,2,ens4,63564129889,2491967,0,0,0,0,0,0,63367685580,2313004,0,0,0,0,0,0
[NT-INFO] Network Stats,13,2,lo,254124,1259,0,0,0,0,0,0,254124,1259,0,0,0,0,0,0
[PI-INFO] Paramount Iteration,0,2,33.231006,4.172910
[RU-INFO] Resources Stats,0,2,27.275865,5.518354,1594016,0,0,0,2506,1,0,72,0,0,0,0,2143,1057
[NT-INFO] Network Stats,0,2,ens4,63509467995,2509431,0,0,0,0,0,0,63930452799,2431457,0,0,0,0,0,0
[NT-INFO] Network Stats,0,2,lo,250296,1206,0,0,0,0,0,0,250296,1206,0,0,0,0,0,0
        3
[PI-INFO] Paramount Iteration,15,2,33.225791,4.186150
[RU-INFO] Resources Stats,15,2,27.325854,5.457968,1585664,0,0,0,2503,0,0,0,0,0,0,0,2161,780
[NT-INFO] Network Stats,15,2,ens4,63564130153,2491971,0,0,0,0,0,0,63368010450,2313012,0,0,0,0,0,0
[NT-INFO] Network Stats,15,2,lo,254124,1259,0,0,0,0,0,0,254124,1259,0,0,0,0,0,0
[PI-INFO] Paramount Iteration,9,3,37.152510,4.254054
[RU-INFO] Resources Stats,9,3,28.518130,8.202311,1573364,0,0,0,2494,0,0,0,0,0,0,0,2205,1019
[NT-INFO] Network Stats,9,3,ens4,65351444733,2460616,0,0,0,0,0,0,64827098146,2455466,0,0,0,0,0,0
[NT-INFO] Network Stats,9,3,lo,254696,1270,0,0,0,0,0,0,254696,1270,0,0,0,0,0,0
[PI-INFO] Paramount Iteration,12,3,37.166246,4.207192
[RU-INFO] Resources Stats,12,3,28.642846,8.078546,1587872,0,0,0,2503,1,0,72,0,0,0,0,2130,1308
[NT-INFO] Network Stats,12,3,ens4,65184246277,2564942,0,0,0,0,0,0,65025241010,2378367,0,0,0,0,0,0
[NT-INFO] Network Stats,12,3,lo,254124,1259,0,0,0,0,0,0,254124,1259,0,0,0,0,0,0
[PI-INFO] Paramount Iteration,8,3,37.168457,4.238301
[RU-INFO] Resources Stats,8,3,28.570968,8.153997,1608320,0,0,0,2518,1,0,72,0,0,0,0,2227,1333
[NT-INFO] Network Stats,8,3,ens4,65351444997,2460620,0,0,0,0,0,0,64827098910,2455470,0,0,0,0,0,0
[NT-INFO] Network Stats,8,3,lo,254696,1270,0,0,0,0,0,0,254696,1270,0,0,0,0,0,0
[PI-INFO] Paramount Iteration,10,3,37.185609,4.270469
[RU-INFO] Resources Stats,10,3,28.845299,7.910162,1588056,0,0,0,2525,0,0,0,0,0,0,0,2195,987
[NT-INFO] Network Stats,10,3,ens4,65351445261,2460624,0,0,0,0,0,0,64827099687,2455474,0,0,0,0,0,0
[NT-INFO] Network Stats,10,3,lo,254696,1270,0,0,0,0,0,0,254696,1270,0,0,0,0,0,0
[PI-INFO] Paramount Iteration,13,3,37.198827,4.215224
[RU-INFO] Resources Stats,13,3,29.140401,7.569713,1577548,0,0,0,2506,0,0,0,0,0,0,0,2143,970
[NT-INFO] Network Stats,13,3,ens4,65184246541,2564946,0,0,0,0,0,0,65025436214,2378373,0,0,0,0,0,0
[NT-INFO] Network Stats,13,3,lo,254124,1259,0,0,0,0,0,0,254124,1259,0,0,0,0,0,0
[PI-INFO] Paramount Iteration,11,3,37.207991,4.275803
[RU-INFO] Resources Stats,11,3,28.624166,8.144632,1604068,0,0,0,2530,0,0,0,0,0,0,0,2212,925
[NT-INFO] Network Stats,11,3,ens4,65351445525,2460628,0,0,0,0,0,0,64827100453,2455478,0,0,0,0,0,0
[NT-INFO] Network Stats,11,3,lo,254696,1270,0,0,0,0,0,0,254696,1270,0,0,0,0,0,0
[PI-INFO] Paramount Iteration,6,3,37.272919,4.392644
[PI-INFO] Paramount Iteration,7,3,37.271517,4.360470
[RU-INFO] Resources Stats,6,3,28.897974,7.940146,1573368,0,0,0,2501,0,0,0,0,0,0,0,2264,1182
[NT-INFO] Network Stats,6,3,ens4,65310717416,2449307,0,0,0,0,0,0,64882201667,2431721,0,0,0,0,0,0
[NT-INFO] Network Stats,6,3,lo,255996,1295,0,0,0,0,0,0,255996,1295,0,0,0,0,0,0
[RU-INFO] Resources Stats,7,3,28.488031,8.339325,1585744,0,0,0,2507,0,0,0,0,0,0,0,2171,978
[NT-INFO] Network Stats,7,3,ens4,65310717416,2449307,0,0,0,0,0,0,64882201667,2431721,0,0,0,0,0,0
[NT-INFO] Network Stats,7,3,lo,255996,1295,0,0,0,0,0,0,255996,1295,0,0,0,0,0,0
[PI-INFO] Paramount Iteration,5,3,37.299449,4.380705
[RU-INFO] Resources Stats,5,3,29.028225,7.837900,1591732,0,0,0,2514,0,0,0,0,0,0,0,2226,1065
[NT-INFO] Network Stats,5,3,ens4,65310717944,2449315,0,0,0,0,0,0,64883874364,2431757,0,0,0,0,0,0
[NT-INFO] Network Stats,5,3,lo,255996,1295,0,0,0,0,0,0,255996,1295,0,0,0,0,0,0
[PI-INFO] Paramount Iteration,14,3,37.312709,4.353442
[RU-INFO] Resources Stats,14,3,28.993591,7.875345,1589696,0,0,0,2514,0,0,0,0,0,0,0,2144,1339
[NT-INFO] Network Stats,14,3,ens4,65184246805,2564950,0,0,0,0,0,0,65025436980,2378377,0,0,0,0,0,0
[NT-INFO] Network Stats,14,3,lo,254124,1259,0,0,0,0,0,0,254124,1259,0,0,0,0,0,0
[PI-INFO] Paramount Iteration,4,3,37.337086,4.407534
[RU-INFO] Resources Stats,4,3,28.741277,8.156956,1604112,0,0,0,2505,1,0,72,0,0,0,0,2244,981
[NT-INFO] Network Stats,4,3,ens4,65310718208,2449319,0,0,0,0,0,0,64884045908,2431763,0,0,0,0,0,0
[NT-INFO] Network Stats,4,3,lo,255996,1295,0,0,0,0,0,0,255996,1295,0,0,0,0,0,0
[PI-INFO] Paramount Iteration,2,3,37.368550,4.467951
[RU-INFO] Resources Stats,2,3,29.026260,7.906436,1579636,0,0,0,2516,0,0,0,0,0,0,0,2171,1162
[NT-INFO] Network Stats,2,3,ens4,65157089832,2580045,0,0,0,0,0,0,65557712083,2494122,0,0,0,0,0,0
[NT-INFO] Network Stats,2,3,lo,250296,1206,0,0,0,0,0,0,250296,1206,0,0,0,0,0,0
[PI-INFO] Paramount Iteration,1,3,37.411345,4.472494
[RU-INFO] Resources Stats,1,3,29.230087,7.725380,1595992,0,0,0,2519,0,0,0,0,0,0,0,2126,1029
[NT-INFO] Network Stats,1,3,ens4,65157089832,2580045,0,0,0,0,0,0,65557712083,2494122,0,0,0,0,0,0
[NT-INFO] Network Stats,1,3,lo,250296,1206,0,0,0,0,0,0,250296,1206,0,0,0,0,0,0
[PI-INFO] Paramount Iteration,3,3,37.428046,4.471743
[RU-INFO] Resources Stats,3,3,29.280699,7.707131,1589828,0,0,0,2516,0,0,0,0,0,0,0,2145,981
[NT-INFO] Network Stats,3,3,ens4,65157089832,2580045,0,0,0,0,0,0,65557712083,2494122,0,0,0,0,0,0
[NT-INFO] Network Stats,3,3,lo,250296,1206,0,0,0,0,0,0,250296,1206,0,0,0,0,0,0
[PI-INFO] Paramount Iteration,15,3,37.625425,4.399634
[RU-INFO] Resources Stats,15,3,29.841938,7.334442,1585664,0,0,0,2515,0,0,0,0,0,0,0,2161,1019
[NT-INFO] Network Stats,15,3,ens4,65184247069,2564954,0,0,0,0,0,0,65025437747,2378381,0,0,0,0,0,0
[NT-INFO] Network Stats,15,3,lo,254124,1259,0,0,0,0,0,0,254124,1259,0,0,0,0,0,0
[PI-INFO] Paramount Iteration,0,3,37.706513,4.475507
[RU-INFO] Resources Stats,0,3,29.752655,7.510146,1594016,0,0,0,2511,1,0,72,0,0,0,0,2143,1376
[NT-INFO] Network Stats,0,3,ens4,65157090765,2580049,0,0,0,0,0,0,65557712347,2494126,0,0,0,0,0,0
[NT-INFO] Network Stats,0,3,lo,250296,1206,0,0,0,0,0,0,250296,1206,0,0,0,0,0,0
        4
[PI-INFO] Paramount Iteration,6,4,41.772148,4.499229
[RU-INFO] Resources Stats,6,4,31.287086,10.042571,1573368,0,0,0,2501,0,0,0,0,0,0,0,2264,1581
[NT-INFO] Network Stats,6,4,ens4,66946309556,2523218,0,0,0,0,0,0,66533301994,2495116,0,0,0,0,0,0
[NT-INFO] Network Stats,6,4,lo,255996,1295,0,0,0,0,0,0,255996,1295,0,0,0,0,0,0
[PI-INFO] Paramount Iteration,5,4,41.805935,4.506486
[RU-INFO] Resources Stats,5,4,31.447642,9.921363,1591732,0,0,0,2517,0,0,0,0,0,0,0,2226,1222
[NT-INFO] Network Stats,5,4,ens4,66946309820,2523222,0,0,0,0,0,0,66533302759,2495120,0,0,0,0,0,0
[NT-INFO] Network Stats,5,4,lo,255996,1295,0,0,0,0,0,0,255996,1295,0,0,0,0,0,0
[PI-INFO] Paramount Iteration,7,4,41.807396,4.535879
[RU-INFO] Resources Stats,7,4,30.861152,10.497588,1585744,0,0,0,2507,0,0,0,0,0,0,0,2171,1127
[NT-INFO] Network Stats,7,4,ens4,66946310084,2523226,0,0,0,0,0,0,66533303523,2495124,0,0,0,0,0,0
[NT-INFO] Network Stats,7,4,lo,255996,1295,0,0,0,0,0,0,255996,1295,0,0,0,0,0,0
[PI-INFO] Paramount Iteration,4,4,41.812880,4.475794
[RU-INFO] Resources Stats,4,4,31.165201,10.203155,1604112,0,0,0,2505,1,0,72,0,0,0,0,2244,1222
[NT-INFO] Network Stats,4,4,ens4,66946310216,2523228,0,0,0,0,0,0,66533304039,2495127,0,0,0,0,0,0
[NT-INFO] Network Stats,4,4,lo,255996,1295,0,0,0,0,0,0,255996,1295,0,0,0,0,0,0
[PI-INFO] Paramount Iteration,2,4,41.822441,4.453891
[RU-INFO] Resources Stats,2,4,31.514434,9.865005,1579636,0,0,0,2516,0,0,0,0,0,0,0,2171,1443
[NT-INFO] Network Stats,2,4,ens4,66805832357,2653313,0,0,0,0,0,0,67184541212,2558979,0,0,0,0,0,0
[NT-INFO] Network Stats,2,4,lo,250296,1206,0,0,0,0,0,0,250296,1206,0,0,0,0,0,0
[PI-INFO] Paramount Iteration,9,4,41.826875,4.674365
[RU-INFO] Resources Stats,9,4,30.923677,10.466536,1573364,0,0,0,2497,0,0,0,0,0,0,0,2205,1244
[NT-INFO] Network Stats,9,4,ens4,67016119473,2537031,0,0,0,0,0,0,66464936081,2523463,0,0,0,0,0,0
[NT-INFO] Network Stats,9,4,lo,254696,1270,0,0,0,0,0,0,254696,1270,0,0,0,0,0,0
[PI-INFO] Paramount Iteration,8,4,41.846126,4.677669
[RU-INFO] Resources Stats,8,4,30.936322,10.459994,1608320,0,0,0,2518,1,0,72,0,0,0,0,2227,1646
[NT-INFO] Network Stats,8,4,ens4,67016119737,2537035,0,0,0,0,0,0,66464936846,2523467,0,0,0,0,0,0
[NT-INFO] Network Stats,8,4,lo,254696,1270,0,0,0,0,0,0,254696,1270,0,0,0,0,0,0
[PI-INFO] Paramount Iteration,3,4,41.853851,4.425805
[RU-INFO] Resources Stats,3,4,31.737346,9.656758,1589828,0,0,0,2516,0,0,0,0,0,0,0,2145,1236
[NT-INFO] Network Stats,3,4,ens4,66805834218,2653321,0,0,0,0,0,0,67187477810,2559032,0,0,0,0,0,0
[NT-INFO] Network Stats,3,4,lo,250296,1206,0,0,0,0,0,0,250296,1206,0,0,0,0,0,0
[PI-INFO] Paramount Iteration,1,4,41.897968,4.486623
[RU-INFO] Resources Stats,1,4,31.685610,9.750033,1595992,0,0,0,2522,0,0,0,0,0,0,0,2126,1234
[NT-INFO] Network Stats,1,4,ens4,66805834218,2653321,0,0,0,0,0,0,67187477810,2559032,0,0,0,0,0,0
[NT-INFO] Network Stats,1,4,lo,250296,1206,0,0,0,0,0,0,250296,1206,0,0,0,0,0,0
[PI-INFO] Paramount Iteration,10,4,42.031071,4.845462
[RU-INFO] Resources Stats,10,4,31.327117,10.269088,1588260,0,0,0,2532,0,0,0,0,0,0,0,2195,1232
[NT-INFO] Network Stats,10,4,ens4,67016120001,2537039,0,0,0,0,0,0,66464937612,2523471,0,0,0,0,0,0
[NT-INFO] Network Stats,10,4,lo,254696,1270,0,0,0,0,0,0,254696,1270,0,0,0,0,0,0
[PI-INFO] Paramount Iteration,11,4,42.061817,4.853826
[RU-INFO] Resources Stats,11,4,31.092964,10.524264,1604160,0,0,0,2533,0,0,0,0,0,0,0,2212,1140
[NT-INFO] Network Stats,11,4,ens4,67016120265,2537043,0,0,0,0,0,0,66464938380,2523475,0,0,0,0,0,0
[NT-INFO] Network Stats,11,4,lo,254696,1270,0,0,0,0,0,0,254696,1270,0,0,0,0,0,0
[PI-INFO] Paramount Iteration,12,4,42.101613,4.935367
[RU-INFO] Resources Stats,12,4,31.215670,10.433215,1587872,0,0,0,2504,1,0,72,0,0,0,0,2130,1617
[NT-INFO] Network Stats,12,4,ens4,66810114207,2637041,0,0,0,0,0,0,66678977712,2443693,0,0,0,0,0,0
[NT-INFO] Network Stats,12,4,lo,254124,1259,0,0,0,0,0,0,254124,1259,0,0,0,0,0,0
[PI-INFO] Paramount Iteration,14,4,42.128390,4.815681
[RU-INFO] Resources Stats,14,4,31.468959,10.209715,1589696,0,0,0,2515,0,0,0,0,0,0,0,2144,1575
[NT-INFO] Network Stats,14,4,ens4,66810114471,2637045,0,0,0,0,0,0,66679108083,2443698,0,0,0,0,0,0
[NT-INFO] Network Stats,14,4,lo,254124,1259,0,0,0,0,0,0,254124,1259,0,0,0,0,0,0
[PI-INFO] Paramount Iteration,13,4,42.137663,4.938836
[RU-INFO] Resources Stats,13,4,31.852252,9.785331,1577548,0,0,0,2510,0,0,0,0,0,0,0,2143,1184
[NT-INFO] Network Stats,13,4,ens4,66810114735,2637049,0,0,0,0,0,0,66679286605,2443705,0,0,0,0,0,0
[NT-INFO] Network Stats,13,4,lo,254124,1259,0,0,0,0,0,0,254124,1259,0,0,0,0,0,0
[PI-INFO] Paramount Iteration,0,4,42.191932,4.485419
[RU-INFO] Resources Stats,0,4,32.419433,9.321537,1594016,0,0,0,2514,1,0,72,0,0,0,0,2143,1679
[NT-INFO] Network Stats,0,4,ens4,66805838888,2653341,0,0,0,0,0,0,67187479130,2559052,0,0,0,0,0,0
[NT-INFO] Network Stats,0,4,lo,250296,1206,0,0,0,0,0,0,250296,1206,0,0,0,0,0,0
        5
[PI-INFO] Paramount Iteration,15,4,42.224985,4.599560
[RU-INFO] Resources Stats,15,4,32.512353,9.257239,1585664,0,0,0,2515,0,0,0,0,0,0,0,2161,1235
[NT-INFO] Network Stats,15,4,ens4,66810114999,2637053,0,0,0,0,0,0,66680324650,2443724,0,0,0,0,0,0
[NT-INFO] Network Stats,15,4,lo,254124,1259,0,0,0,0,0,0,254124,1259,0,0,0,0,0,0
[PI-INFO] Paramount Iteration,9,5,46.087007,4.260132
[RU-INFO] Resources Stats,9,5,33.186653,12.457993,1573364,0,0,0,2501,0,0,0,0,0,0,0,2205,1459
[NT-INFO] Network Stats,9,5,ens4,68672950191,2610051,0,0,0,0,0,0,68097893432,2588145,0,0,0,0,0,0
[NT-INFO] Network Stats,9,5,lo,254696,1270,0,0,0,0,0,0,254696,1270,0,0,0,0,0,0
[PI-INFO] Paramount Iteration,8,5,46.138310,4.292184
[RU-INFO] Resources Stats,8,5,33.227632,12.454866,1608320,0,0,0,2521,1,0,72,0,0,0,0,2227,1929
[NT-INFO] Network Stats,8,5,ens4,68672950455,2610055,0,0,0,0,0,0,68097894197,2588149,0,0,0,0,0,0
[NT-INFO] Network Stats,8,5,lo,254696,1270,0,0,0,0,0,0,254696,1270,0,0,0,0,0,0
[PI-INFO] Paramount Iteration,6,5,46.164640,4.392492
[RU-INFO] Resources Stats,6,5,33.556641,12.158435,1573368,0,0,0,2508,0,0,0,0,0,0,0,2264,1871
[NT-INFO] Network Stats,6,5,ens4,68585979628,2596257,0,0,0,0,0,0,68179847208,2561357,0,0,0,0,0,0
[NT-INFO] Network Stats,6,5,lo,255996,1295,0,0,0,0,0,0,255996,1295,0,0,0,0,0,0
[PI-INFO] Paramount Iteration,7,5,46.178683,4.371287
[RU-INFO] Resources Stats,7,5,33.227511,12.495303,1585744,0,0,0,2511,0,0,0,0,0,0,0,2171,1381
[NT-INFO] Network Stats,7,5,ens4,68585979892,2596261,0,0,0,0,0,0,68180482601,2561371,0,0,0,0,0,0
[NT-INFO] Network Stats,7,5,lo,255996,1295,0,0,0,0,0,0,255996,1295,0,0,0,0,0,0
[PI-INFO] Paramount Iteration,5,5,46.199059,4.393124
[RU-INFO] Resources Stats,5,5,33.801015,11.954700,1591732,0,0,0,2519,0,0,0,0,0,0,0,2226,1495
[NT-INFO] Network Stats,5,5,ens4,68585980156,2596265,0,0,0,0,0,0,68180970932,2561382,0,0,0,0,0,0
[NT-INFO] Network Stats,5,5,lo,255996,1295,0,0,0,0,0,0,255996,1295,0,0,0,0,0,0
[PI-INFO] Paramount Iteration,2,5,46.224849,4.402408
[RU-INFO] Resources Stats,2,5,33.879607,11.897053,1579636,0,0,0,2520,0,0,0,0,0,0,0,2171,1687
[NT-INFO] Network Stats,2,5,ens4,68454192751,2726519,0,0,0,0,0,0,68827343575,2624453,0,0,0,0,0,0
[NT-INFO] Network Stats,2,5,lo,250296,1206,0,0,0,0,0,0,250296,1206,0,0,0,0,0,0
[PI-INFO] Paramount Iteration,4,5,46.232413,4.419533
[RU-INFO] Resources Stats,4,5,33.471096,12.313781,1604112,0,0,0,2505,1,0,72,0,0,0,0,2244,1323
[NT-INFO] Network Stats,4,5,ens4,68585980420,2596269,0,0,0,0,0,0,68181166133,2561388,0,0,0,0,0,0
[NT-INFO] Network Stats,4,5,lo,255996,1295,0,0,0,0,0,0,255996,1295,0,0,0,0,0,0
[PI-INFO] Paramount Iteration,1,5,46.256241,4.358273
[RU-INFO] Resources Stats,1,5,34.144548,11.632098,1595992,0,0,0,2523,0,0,0,0,0,0,0,2126,1404
[NT-INFO] Network Stats,1,5,ens4,68454193682,2726523,0,0,0,0,0,0,68827343839,2624457,0,0,0,0,0,0
[NT-INFO] Network Stats,1,5,lo,250296,1206,0,0,0,0,0,0,250296,1206,0,0,0,0,0,0
[PI-INFO] Paramount Iteration,3,5,46.301147,4.447296
[RU-INFO] Resources Stats,3,5,34.297242,11.529694,1590024,0,0,0,2519,0,0,0,0,0,0,0,2145,1482
[NT-INFO] Network Stats,3,5,ens4,68454193832,2726524,0,0,0,0,0,0,68827532709,2624460,0,0,0,0,0,0
[NT-INFO] Network Stats,3,5,lo,250296,1206,0,0,0,0,0,0,250296,1206,0,0,0,0,0,0
[PI-INFO] Paramount Iteration,10,5,46.323793,4.292722
[RU-INFO] Resources Stats,10,5,33.686322,12.197944,1588260,0,0,0,2533,0,0,0,0,0,0,0,2195,1455
[NT-INFO] Network Stats,10,5,ens4,68672950719,2610059,0,0,0,0,0,0,68097894975,2588153,0,0,0,0,0,0
[NT-INFO] Network Stats,10,5,lo,254696,1270,0,0,0,0,0,0,254696,1270,0,0,0,0,0,0
[PI-INFO] Paramount Iteration,11,5,46.346384,4.284567
[RU-INFO] Resources Stats,11,5,33.417531,12.480090,1604160,0,0,0,2533,0,0,0,0,0,0,0,2212,1314
[NT-INFO] Network Stats,11,5,ens4,68672950983,2610063,0,0,0,0,0,0,68097895743,2588157,0,0,0,0,0,0
[NT-INFO] Network Stats,11,5,lo,254696,1270,0,0,0,0,0,0,254696,1270,0,0,0,0,0,0
[PI-INFO] Paramount Iteration,12,5,46.390429,4.288816
[RU-INFO] Resources Stats,12,5,33.583414,12.344844,1587872,0,0,0,2504,1,0,72,0,0,0,0,2130,1940
[NT-INFO] Network Stats,12,5,ens4,68434491657,2710059,0,0,0,0,0,0,68326714631,2507058,0,0,0,0,0,0
[NT-INFO] Network Stats,12,5,lo,254124,1259,0,0,0,0,0,0,254124,1259,0,0,0,0,0,0
[PI-INFO] Paramount Iteration,14,5,46.417493,4.289103
[RU-INFO] Resources Stats,14,5,33.875681,12.085032,1589696,0,0,0,2519,0,0,0,0,0,0,0,2144,1857
[NT-INFO] Network Stats,14,5,ens4,68434492019,2710064,0,0,0,0,0,0,68326967762,2507067,0,0,0,0,0,0
[NT-INFO] Network Stats,14,5,lo,254124,1259,0,0,0,0,0,0,254124,1259,0,0,0,0,0,0
[PI-INFO] Paramount Iteration,13,5,46.426779,4.289116
[RU-INFO] Resources Stats,13,5,34.252973,11.658632,1577548,0,0,0,2511,0,0,0,0,0,0,0,2143,1397
[NT-INFO] Network Stats,13,5,ens4,68434492283,2710068,0,0,0,0,0,0,68327056040,2507072,0,0,0,0,0,0
[NT-INFO] Network Stats,13,5,lo,254124,1259,0,0,0,0,0,0,254124,1259,0,0,0,0,0,0
[PI-INFO] Paramount Iteration,15,5,46.542151,4.317166
[RU-INFO] Resources Stats,15,5,35.068691,11.002962,1585664,0,0,0,2515,0,0,0,0,0,0,0,2161,1487
[NT-INFO] Network Stats,15,5,ens4,68434492743,2710074,0,0,0,0,0,0,68327057304,2507078,0,0,0,0,0,0
[NT-INFO] Network Stats,15,5,lo,254124,1259,0,0,0,0,0,0,254124,1259,0,0,0,0,0,0
[PI-INFO] Paramount Iteration,0,5,46.550509,4.358577
[RU-INFO] Resources Stats,0,5,34.999902,11.092166,1594204,0,0,0,2520,1,0,72,0,0,0,0,2143,1984
[NT-INFO] Network Stats,0,5,ens4,68454199719,2726551,0,0,0,0,0,0,68827534411,2624485,0,0,0,0,0,0
[NT-INFO] Network Stats,0,5,lo,250296,1206,0,0,0,0,0,0,250296,1206,0,0,0,0,0,0
        6
[PI-INFO] Paramount Iteration,6,6,50.784137,4.619497
[RU-INFO] Resources Stats,6,6,35.956408,14.373767,1573368,0,0,0,2509,0,0,0,0,0,0,0,2264,2042
[NT-INFO] Network Stats,6,6,ens4,70223608370,2668365,0,0,0,0,0,0,69824477173,2626500,0,0,0,0,0,0
[NT-INFO] Network Stats,6,6,lo,255996,1295,0,0,0,0,0,0,255996,1295,0,0,0,0,0,0
[PI-INFO] Paramount Iteration,5,6,50.802554,4.603495
[RU-INFO] Resources Stats,5,6,36.215779,14.133669,1591732,0,0,0,2519,0,0,0,0,0,0,0,2226,1905
[NT-INFO] Network Stats,5,6,ens4,70223608634,2668369,0,0,0,0,0,0,69824477938,2626504,0,0,0,0,0,0
[NT-INFO] Network Stats,5,6,lo,255996,1295,0,0,0,0,0,0,255996,1295,0,0,0,0,0,0
[PI-INFO] Paramount Iteration,2,6,50.804661,4.579812
[RU-INFO] Resources Stats,2,6,36.316051,14.035382,1579636,0,0,0,2523,0,0,0,0,0,0,0,2171,1956
[NT-INFO] Network Stats,2,6,ens4,70107031411,2799500,0,0,0,0,0,0,70460567073,2687793,0,0,0,0,0,0
[NT-INFO] Network Stats,2,6,lo,250296,1206,0,0,0,0,0,0,250296,1206,0,0,0,0,0,0
[PI-INFO] Paramount Iteration,4,6,50.808277,4.575864
[RU-INFO] Resources Stats,4,6,35.952047,14.401609,1604112,0,0,0,2506,1,0,72,0,0,0,0,2244,1528
[NT-INFO] Network Stats,4,6,ens4,70223608898,2668373,0,0,0,0,0,0,69824478715,2626508,0,0,0,0,0,0
[NT-INFO] Network Stats,4,6,lo,255996,1295,0,0,0,0,0,0,255996,1295,0,0,0,0,0,0
[PI-INFO] Paramount Iteration,7,6,50.807325,4.628642
[RU-INFO] Resources Stats,7,6,35.591172,14.754682,1585744,0,0,0,2511,0,0,0,0,0,0,0,2171,1527
[NT-INFO] Network Stats,7,6,ens4,70223609162,2668377,0,0,0,0,0,0,69824998087,2626519,0,0,0,0,0,0
[NT-INFO] Network Stats,7,6,lo,255996,1295,0,0,0,0,0,0,255996,1295,0,0,0,0,0,0
[PI-INFO] Paramount Iteration,9,6,50.817511,4.730504
[RU-INFO] Resources Stats,9,6,35.632300,14.738469,1573364,0,0,0,2501,0,0,0,0,0,0,0,2205,1673
[NT-INFO] Network Stats,9,6,ens4,70332586429,2683001,0,0,0,0,0,0,69735744217,2652756,0,0,0,0,0,0
[NT-INFO] Network Stats,9,6,lo,254696,1270,0,0,0,0,0,0,254696,1270,0,0,0,0,0,0
[PI-INFO] Paramount Iteration,3,6,50.817167,4.516020
[RU-INFO] Resources Stats,3,6,36.806315,13.529499,1590024,0,0,0,2519,0,0,0,0,0,0,0,2145,1742
[NT-INFO] Network Stats,3,6,ens4,70107034202,2799512,0,0,0,0,0,0,70462913207,2687842,0,0,0,0,0,0
[NT-INFO] Network Stats,3,6,lo,250296,1206,0,0,0,0,0,0,250296,1206,0,0,0,0,0,0
[PI-INFO] Paramount Iteration,8,6,50.835545,4.697235
[RU-INFO] Resources Stats,8,6,35.657095,14.716895,1608320,0,0,0,2524,1,0,72,0,0,0,0,2227,2225
[NT-INFO] Network Stats,8,6,ens4,70332586693,2683005,0,0,0,0,0,0,69735744982,2652760,0,0,0,0,0,0
[NT-INFO] Network Stats,8,6,lo,254696,1270,0,0,0,0,0,0,254696,1270,0,0,0,0,0,0
[PI-INFO] Paramount Iteration,10,6,50.851868,4.528075
[RU-INFO] Resources Stats,10,6,35.999586,14.408632,1588260,0,0,0,2533,0,0,0,0,0,0,0,2195,1675
[NT-INFO] Network Stats,10,6,ens4,70332586957,2683009,0,0,0,0,0,0,69735810516,2652764,0,0,0,0,0,0
[NT-INFO] Network Stats,10,6,lo,254696,1270,0,0,0,0,0,0,254696,1270,0,0,0,0,0,0
[PI-INFO] Paramount Iteration,11,6,50.875265,4.528881
[RU-INFO] Resources Stats,11,6,35.867277,14.554837,1604160,0,0,0,2536,0,0,0,0,0,0,0,2212,1494
[NT-INFO] Network Stats,11,6,ens4,70332587221,2683013,0,0,0,0,0,0,69735811350,2652769,0,0,0,0,0,0
[NT-INFO] Network Stats,11,6,lo,254696,1270,0,0,0,0,0,0,254696,1270,0,0,0,0,0,0
[PI-INFO] Paramount Iteration,1,6,50.884932,4.628691
[RU-INFO] Resources Stats,1,6,36.590226,13.802804,1595992,0,0,0,2523,0,0,0,0,0,0,0,2126,1614
[NT-INFO] Network Stats,1,6,ens4,70107037001,2799524,0,0,0,0,0,0,70462913999,2687854,0,0,0,0,0,0
[NT-INFO] Network Stats,1,6,lo,250296,1206,0,0,0,0,0,0,250296,1206,0,0,0,0,0,0
[PI-INFO] Paramount Iteration,12,6,50.927674,4.537245
[RU-INFO] Resources Stats,12,6,36.006090,14.450417,1587872,0,0,0,2504,1,0,72,0,0,0,0,2130,2282
[NT-INFO] Network Stats,12,6,ens4,70056102755,2783011,0,0,0,0,0,0,69978943194,2570720,0,0,0,0,0,0
[NT-INFO] Network Stats,12,6,lo,254124,1259,0,0,0,0,0,0,254124,1259,0,0,0,0,0,0
[PI-INFO] Paramount Iteration,14,6,50.959915,4.542422
[RU-INFO] Resources Stats,14,6,36.251185,14.246107,1589696,0,0,0,2522,0,0,0,0,0,0,0,2144,2087
[NT-INFO] Network Stats,14,6,ens4,70056103019,2783015,0,0,0,0,0,0,69979203299,2570728,0,0,0,0,0,0
[NT-INFO] Network Stats,14,6,lo,254124,1259,0,0,0,0,0,0,254124,1259,0,0,0,0,0,0
[PI-INFO] Paramount Iteration,13,6,50.962939,4.536160
[RU-INFO] Resources Stats,13,6,36.700422,13.735199,1577548,0,0,0,2511,0,0,0,0,0,0,0,2143,1619
[NT-INFO] Network Stats,13,6,ens4,70056103283,2783019,0,0,0,0,0,0,69979504383,2570736,0,0,0,0,0,0
[NT-INFO] Network Stats,13,6,lo,254124,1259,0,0,0,0,0,0,254124,1259,0,0,0,0,0,0
[PI-INFO] Paramount Iteration,0,6,51.176676,4.626167
[RU-INFO] Resources Stats,0,6,37.655357,13.055616,1594204,0,0,0,2523,1,0,72,0,0,0,0,2143,2305
[NT-INFO] Network Stats,0,6,ens4,70107039804,2799536,0,0,0,0,0,0,70462914791,2687866,0,0,0,0,0,0
[NT-INFO] Network Stats,0,6,lo,250296,1206,0,0,0,0,0,0,250296,1206,0,0,0,0,0,0
        7
[PI-INFO] Paramount Iteration,15,6,51.214589,4.672438
[RU-INFO] Resources Stats,15,6,37.733502,13.004382,1585664,0,0,0,2518,0,0,0,0,0,0,0,2161,1688
[NT-INFO] Network Stats,15,6,ens4,70056103547,2783023,0,0,0,0,0,0,69979540417,2570741,0,0,0,0,0,0
[NT-INFO] Network Stats,15,6,lo,254124,1259,0,0,0,0,0,0,254124,1259,0,0,0,0,0,0
[PI-INFO] Paramount Iteration,6,7,55.806741,5.022604
[RU-INFO] Resources Stats,6,7,38.482117,16.861916,1573368,0,0,0,2510,0,0,0,0,0,0,0,2264,2447
[NT-INFO] Network Stats,6,7,ens4,71876485126,2744006,0,0,0,0,0,0,71469325372,2693634,0,0,0,0,0,0
[NT-INFO] Network Stats,6,7,lo,255996,1295,0,0,0,0,0,0,255996,1295,0,0,0,0,0,0
[PI-INFO] Paramount Iteration,7,7,55.829610,5.022285
[RU-INFO] Resources Stats,7,7,38.118726,17.245994,1585744,0,0,0,2514,0,0,0,0,0,0,0,2171,1638
[NT-INFO] Network Stats,7,7,ens4,71876485390,2744010,0,0,0,0,0,0,71469326203,2693639,0,0,0,0,0,0
[NT-INFO] Network Stats,7,7,lo,255996,1295,0,0,0,0,0,0,255996,1295,0,0,0,0,0,0
[PI-INFO] Paramount Iteration,9,7,55.838562,5.021051
[RU-INFO] Resources Stats,9,7,38.212033,17.174217,1573364,0,0,0,2503,0,0,0,0,0,0,0,2205,1902
[PI-INFO] Paramount Iteration,5,7,55.838838,5.036284
[NT-INFO] Network Stats,9,7,ens4,71991495643,2760097,0,0,0,0,0,0,71372257776,2719700,0,0,0,0,0,0
[RU-INFO] Resources Stats,5,7,38.819344,16.559189,1591732,0,0,0,2523,0,0,0,0,0,0,0,2226,2209
[NT-INFO] Network Stats,9,7,lo,254696,1270,0,0,0,0,0,0,254696,1270,0,0,0,0,0,0
[NT-INFO] Network Stats,5,7,ens4,71876485654,2744014,0,0,0,0,0,0,71469466494,2693646,0,0,0,0,0,0
[NT-INFO] Network Stats,5,7,lo,255996,1295,0,0,0,0,0,0,255996,1295,0,0,0,0,0,0
[PI-INFO] Paramount Iteration,2,7,55.844934,5.040273
[RU-INFO] Resources Stats,2,7,38.959073,16.426549,1579636,0,0,0,2524,0,0,0,0,0,0,0,2171,2244
[NT-INFO] Network Stats,2,7,ens4,71750612421,2874684,0,0,0,0,0,0,72098055594,2754156,0,0,0,0,0,0
[NT-INFO] Network Stats,2,7,lo,250296,1206,0,0,0,0,0,0,250296,1206,0,0,0,0,0,0
[PI-INFO] Paramount Iteration,8,7,55.852983,5.017438
[RU-INFO] Resources Stats,8,7,38.122901,17.262823,1608320,0,0,0,2527,1,0,72,0,0,0,0,2227,2524
[NT-INFO] Network Stats,8,7,ens4,71991495907,2760101,0,0,0,0,0,0,71372258541,2719704,0,0,0,0,0,0
[NT-INFO] Network Stats,8,7,lo,254696,1270,0,0,0,0,0,0,254696,1270,0,0,0,0,0,0
[PI-INFO] Paramount Iteration,10,7,55.868648,5.016780
[RU-INFO] Resources Stats,10,7,38.666625,16.753671,1588260,0,0,0,2535,0,0,0,0,0,0,0,2195,1918
[NT-INFO] Network Stats,10,7,ens4,71991496171,2760105,0,0,0,0,0,0,71372259307,2719708,0,0,0,0,0,0
[NT-INFO] Network Stats,10,7,lo,254696,1270,0,0,0,0,0,0,254696,1270,0,0,0,0,0,0
[PI-INFO] Paramount Iteration,4,7,55.873683,5.065406
[RU-INFO] Resources Stats,4,7,38.442150,16.972119,1604112,0,0,0,2509,1,0,72,0,0,0,0,2244,1735
[NT-INFO] Network Stats,4,7,ens4,71876485918,2744018,0,0,0,0,0,0,71469467271,2693650,0,0,0,0,0,0
[NT-INFO] Network Stats,4,7,lo,255996,1295,0,0,0,0,0,0,255996,1295,0,0,0,0,0,0
[PI-INFO] Paramount Iteration,11,7,55.906922,5.031657
[RU-INFO] Resources Stats,11,7,38.350013,17.097764,1604160,0,0,0,2542,0,0,0,0,0,0,0,2212,1708
[NT-INFO] Network Stats,11,7,ens4,71991496435,2760109,0,0,0,0,0,0,71372260075,2719712,0,0,0,0,0,0
[NT-INFO] Network Stats,11,7,lo,254696,1270,0,0,0,0,0,0,254696,1270,0,0,0,0,0,0
[PI-INFO] Paramount Iteration,1,7,55.912408,5.027476
[RU-INFO] Resources Stats,1,7,39.177651,16.221371,1595992,0,0,0,2524,0,0,0,0,0,0,0,2126,1815
[NT-INFO] Network Stats,1,7,ens4,71750616151,2874700,0,0,0,0,0,0,72098056650,2754172,0,0,0,0,0,0
[NT-INFO] Network Stats,1,7,lo,250296,1206,0,0,0,0,0,0,250296,1206,0,0,0,0,0,0
[PI-INFO] Paramount Iteration,3,7,55.946595,5.129428
[RU-INFO] Resources Stats,3,7,39.513087,15.932374,1590024,0,0,0,2521,0,0,0,0,0,0,0,2145,1988
[NT-INFO] Network Stats,3,7,ens4,71750616151,2874700,0,0,0,0,0,0,72098056650,2754172,0,0,0,0,0,0
[NT-INFO] Network Stats,3,7,lo,250296,1206,0,0,0,0,0,0,250296,1206,0,0,0,0,0,0
[PI-INFO] Paramount Iteration,12,7,55.962376,5.034702
[RU-INFO] Resources Stats,12,7,38.474519,17.008272,1587872,0,0,0,2506,1,0,72,0,0,0,0,2130,2628
[NT-INFO] Network Stats,12,7,ens4,71679871211,2858839,0,0,0,0,0,0,71640087473,2637966,0,0,0,0,0,0
[NT-INFO] Network Stats,12,7,lo,254124,1259,0,0,0,0,0,0,254124,1259,0,0,0,0,0,0
[PI-INFO] Paramount Iteration,14,7,55.982257,5.022342
[RU-INFO] Resources Stats,14,7,38.816604,16.696818,1589852,0,0,0,2524,0,0,0,0,0,0,0,2144,2331
[NT-INFO] Network Stats,14,7,ens4,71679872069,2858852,0,0,0,0,0,0,71640089836,2637976,0,0,0,0,0,0
[NT-INFO] Network Stats,14,7,lo,254124,1259,0,0,0,0,0,0,254124,1259,0,0,0,0,0,0
[PI-INFO] Paramount Iteration,13,7,55.985381,5.022442
[RU-INFO] Resources Stats,13,7,39.347233,16.094416,1577548,0,0,0,2519,0,0,0,0,0,0,0,2143,1852
[NT-INFO] Network Stats,13,7,ens4,71679872333,2858856,0,0,0,0,0,0,71640547406,2637987,0,0,0,0,0,0
[NT-INFO] Network Stats,13,7,lo,254124,1259,0,0,0,0,0,0,254124,1259,0,0,0,0,0,0
[PI-INFO] Paramount Iteration,0,7,56.227064,5.050388
[RU-INFO] Resources Stats,0,7,40.360007,15.392951,1594204,0,0,0,2525,1,0,72,0,0,0,0,2143,2648
[NT-INFO] Network Stats,0,7,ens4,71750618650,2874710,0,0,0,0,0,0,72098057310,2754182,0,0,0,0,0,0
[NT-INFO] Network Stats,0,7,lo,250296,1206,0,0,0,0,0,0,250296,1206,0,0,0,0,0,0
        8
[PI-INFO] Paramount Iteration,15,7,56.241410,5.026821
[RU-INFO] Resources Stats,15,7,40.472480,15.285159,1585664,0,0,0,2520,0,0,0,0,0,0,0,2161,1964
[NT-INFO] Network Stats,15,7,ens4,71679872727,2858861,0,0,0,0,0,0,71640552872,2637993,0,0,0,0,0,0
[NT-INFO] Network Stats,15,7,lo,254124,1259,0,0,0,0,0,0,254124,1259,0,0,0,0,0,0
[PI-INFO] Paramount Iteration,6,8,60.084926,4.278185
[PI-INFO] Paramount Iteration,9,8,60.086987,4.248425
[RU-INFO] Resources Stats,6,8,40.834588,18.779992,1573368,0,0,0,2516,0,0,0,0,0,0,0,2264,2805
[NT-INFO] Network Stats,6,8,ens4,73511923042,2815559,0,0,0,0,0,0,73109946747,2757091,0,0,0,0,0,0
[RU-INFO] Resources Stats,9,8,40.558631,19.071594,1573364,0,0,0,2503,0,0,0,0,0,0,0,2205,2120
[NT-INFO] Network Stats,9,8,ens4,73637209713,2833007,0,0,0,0,0,0,73005480897,2783786,0,0,0,0,0,0
[NT-INFO] Network Stats,6,8,lo,255996,1295,0,0,0,0,0,0,255996,1295,0,0,0,0,0,0
[NT-INFO] Network Stats,9,8,lo,254696,1270,0,0,0,0,0,0,254696,1270,0,0,0,0,0,0
[PI-INFO] Paramount Iteration,10,8,60.089561,4.220913
[RU-INFO] Resources Stats,10,8,40.900261,18.736455,1588260,0,0,0,2535,0,0,0,0,0,0,0,2195,2128
[NT-INFO] Network Stats,10,8,ens4,73637209977,2833011,0,0,0,0,0,0,73005481662,2783790,0,0,0,0,0,0
[NT-INFO] Network Stats,10,8,lo,254696,1270,0,0,0,0,0,0,254696,1270,0,0,0,0,0,0
[PI-INFO] Paramount Iteration,7,8,60.093170,4.263560
[RU-INFO] Resources Stats,7,8,40.453069,19.168924,1585744,0,0,0,2514,0,0,0,0,0,0,0,2171,1809
[NT-INFO] Network Stats,7,8,ens4,73511923306,2815563,0,0,0,0,0,0,73109947512,2757095,0,0,0,0,0,0
[NT-INFO] Network Stats,7,8,lo,255996,1295,0,0,0,0,0,0,255996,1295,0,0,0,0,0,0
[PI-INFO] Paramount Iteration,8,8,60.107545,4.254562
[RU-INFO] Resources Stats,8,8,40.425898,19.207598,1608320,0,0,0,2530,1,0,72,0,0,0,0,2227,2813
[NT-INFO] Network Stats,8,8,ens4,73637210241,2833015,0,0,0,0,0,0,73005482430,2783794,0,0,0,0,0,0
[NT-INFO] Network Stats,8,8,lo,254696,1270,0,0,0,0,0,0,254696,1270,0,0,0,0,0,0
[PI-INFO] Paramount Iteration,2,8,60.111657,4.266723
[RU-INFO] Resources Stats,2,8,41.389245,18.257491,1579636,0,0,0,2527,0,0,0,0,0,0,0,2171,2465
[NT-INFO] Network Stats,2,8,ens4,73385050428,2945466,0,0,0,0,0,0,73724069227,2816385,0,0,0,0,0,0
[NT-INFO] Network Stats,2,8,lo,250296,1206,0,0,0,0,0,0,250296,1206,0,0,0,0,0,0
[PI-INFO] Paramount Iteration,5,8,60.115963,4.277125
[RU-INFO] Resources Stats,5,8,41.184039,18.464844,1591856,0,0,0,2524,0,0,0,0,0,0,0,2226,2473
[NT-INFO] Network Stats,5,8,ens4,73511923570,2815567,0,0,0,0,0,0,73109948343,2757100,0,0,0,0,0,0
[NT-INFO] Network Stats,5,8,lo,255996,1295,0,0,0,0,0,0,255996,1295,0,0,0,0,0,0
[PI-INFO] Paramount Iteration,11,8,60.113203,4.206281
[RU-INFO] Resources Stats,11,8,40.685692,18.963466,1604160,0,0,0,2542,0,0,0,0,0,0,0,2212,1888
[NT-INFO] Network Stats,11,8,ens4,73637210505,2833019,0,0,0,0,0,0,73005483196,2783798,0,0,0,0,0,0
[NT-INFO] Network Stats,11,8,lo,254696,1270,0,0,0,0,0,0,254696,1270,0,0,0,0,0,0
[PI-INFO] Paramount Iteration,4,8,60.119451,4.245768
[RU-INFO] Resources Stats,4,8,40.732399,18.922894,1604112,0,0,0,2509,1,0,72,0,0,0,0,2244,1879
[NT-INFO] Network Stats,4,8,ens4,73511923834,2815571,0,0,0,0,0,0,73110467846,2757113,0,0,0,0,0,0
[NT-INFO] Network Stats,4,8,lo,255996,1295,0,0,0,0,0,0,255996,1295,0,0,0,0,0,0
[PI-INFO] Paramount Iteration,1,8,60.156676,4.244268
[RU-INFO] Resources Stats,1,8,41.523569,18.110067,1595992,0,0,0,2524,0,0,0,0,0,0,0,2126,1975
[NT-INFO] Network Stats,1,8,ens4,73385053627,2945480,0,0,0,0,0,0,73724394255,2816403,0,0,0,0,0,0
[NT-INFO] Network Stats,1,8,lo,250296,1206,0,0,0,0,0,0,250296,1206,0,0,0,0,0,0
[PI-INFO] Paramount Iteration,12,8,60.157950,4.195574
[RU-INFO] Resources Stats,12,8,40.801572,18.869627,1587872,0,0,0,2507,1,0,72,0,0,0,0,2130,2931
[NT-INFO] Network Stats,12,8,ens4,73308108939,2931610,0,0,0,0,0,0,73280387070,2701977,0,0,0,0,0,0
[NT-INFO] Network Stats,12,8,lo,254124,1259,0,0,0,0,0,0,254124,1259,0,0,0,0,0,0
[PI-INFO] Paramount Iteration,3,8,60.175529,4.228934
[RU-INFO] Resources Stats,3,8,41.965271,17.690418,1590024,0,0,0,2521,0,0,0,0,0,0,0,2145,2221
[NT-INFO] Network Stats,3,8,ens4,73385054562,2945484,0,0,0,0,0,0,73724394519,2816407,0,0,0,0,0,0
[NT-INFO] Network Stats,3,8,lo,250296,1206,0,0,0,0,0,0,250296,1206,0,0,0,0,0,0
[PI-INFO] Paramount Iteration,14,8,60.186977,4.204720
[RU-INFO] Resources Stats,14,8,41.212388,18.498788,1589852,0,0,0,2524,0,0,0,0,0,0,0,2144,2563
[NT-INFO] Network Stats,14,8,ens4,73308109203,2931614,0,0,0,0,0,0,73280582275,2701983,0,0,0,0,0,0
[NT-INFO] Network Stats,14,8,lo,254124,1259,0,0,0,0,0,0,254124,1259,0,0,0,0,0,0
[PI-INFO] Paramount Iteration,13,8,60.190090,4.204709
[RU-INFO] Resources Stats,13,8,41.694287,17.939168,1577548,0,0,0,2519,0,0,0,0,0,0,0,2143,2071
[NT-INFO] Network Stats,13,8,ens4,73308109467,2931618,0,0,0,0,0,0,73280928481,2701992,0,0,0,0,0,0
[NT-INFO] Network Stats,13,8,lo,254124,1259,0,0,0,0,0,0,254124,1259,0,0,0,0,0,0
[PI-INFO] Paramount Iteration,0,8,60.425373,4.198309
[RU-INFO] Resources Stats,0,8,42.919833,17.024760,1594204,0,0,0,2525,1,0,72,0,0,0,0,2143,2949
[NT-INFO] Network Stats,0,8,ens4,73385056578,2945494,0,0,0,0,0,0,73724395113,2816416,0,0,0,0,0,0
[NT-INFO] Network Stats,0,8,lo,250296,1206,0,0,0,0,0,0,250296,1206,0,0,0,0,0,0
        9
[PI-INFO] Paramount Iteration,15,8,60.422948,4.181538
[RU-INFO] Resources Stats,15,8,42.984887,16.947618,1585664,0,0,0,2521,0,0,0,0,0,0,0,2161,2191
[NT-INFO] Network Stats,15,8,ens4,73308109731,2931622,0,0,0,0,0,0,73281512821,2702006,0,0,0,0,0,0
[NT-INFO] Network Stats,15,8,lo,254124,1259,0,0,0,0,0,0,254124,1259,0,0,0,0,0,0
[PI-INFO] Paramount Iteration,6,9,64.261677,4.176751
[RU-INFO] Resources Stats,6,9,43.130642,20.653772,1573368,0,0,0,2523,0,0,0,0,0,0,0,2264,3088
[NT-INFO] Network Stats,6,9,ens4,75146709114,2888712,0,0,0,0,0,0,74760343714,2822353,0,0,0,0,0,0
[NT-INFO] Network Stats,6,9,lo,255996,1295,0,0,0,0,0,0,255996,1295,0,0,0,0,0,0
[PI-INFO] Paramount Iteration,7,9,64.281930,4.188760
[RU-INFO] Resources Stats,7,9,42.718567,21.087394,1585744,0,0,0,2514,0,0,0,0,0,0,0,2171,1982
[NT-INFO] Network Stats,7,9,ens4,75146709378,2888716,0,0,0,0,0,0,74760345073,2822366,0,0,0,0,0,0
[NT-INFO] Network Stats,7,9,lo,255996,1295,0,0,0,0,0,0,255996,1295,0,0,0,0,0,0
[PI-INFO] Paramount Iteration,5,9,64.287325,4.171362
[RU-INFO] Resources Stats,5,9,43.462499,20.351805,1591856,0,0,0,2527,0,0,0,0,0,0,0,2226,2713
[NT-INFO] Network Stats,5,9,ens4,75146709642,2888720,0,0,0,0,0,0,74760345838,2822370,0,0,0,0,0,0
[NT-INFO] Network Stats,5,9,lo,255996,1295,0,0,0,0,0,0,255996,1295,0,0,0,0,0,0
[PI-INFO] Paramount Iteration,9,9,64.290721,4.203734
[RU-INFO] Resources Stats,9,9,42.916612,20.912400,1573364,0,0,0,2503,0,0,0,0,0,0,0,2205,2343
[NT-INFO] Network Stats,9,9,ens4,75295339853,2907974,0,0,0,0,0,0,74633874796,2849398,0,0,0,0,0,0
[NT-INFO] Network Stats,9,9,lo,254696,1270,0,0,0,0,0,0,254696,1270,0,0,0,0,0,0
[PI-INFO] Paramount Iteration,10,9,64.295597,4.206036
[RU-INFO] Resources Stats,10,9,43.182764,20.655582,1588260,0,0,0,2535,0,0,0,0,0,0,0,2195,2366
[NT-INFO] Network Stats,10,9,ens4,75295340117,2907978,0,0,0,0,0,0,74633875561,2849402,0,0,0,0,0,0
[NT-INFO] Network Stats,10,9,lo,254696,1270,0,0,0,0,0,0,254696,1270,0,0,0,0,0,0
[PI-INFO] Paramount Iteration,2,9,64.300825,4.189168
[RU-INFO] Resources Stats,2,9,43.744602,20.086766,1579636,0,0,0,2527,0,0,0,0,0,0,0,2171,2715
[NT-INFO] Network Stats,2,9,ens4,75020104752,3017256,0,0,0,0,0,0,75359081751,2877306,0,0,0,0,0,0
[NT-INFO] Network Stats,2,9,lo,250296,1206,0,0,0,0,0,0,250296,1206,0,0,0,0,0,0
[PI-INFO] Paramount Iteration,8,9,64.304622,4.197077
[RU-INFO] Resources Stats,8,9,42.761675,21.063033,1608320,0,0,0,2530,1,0,72,0,0,0,0,2227,3115
[NT-INFO] Network Stats,8,9,ens4,75295340381,2907982,0,0,0,0,0,0,74633876329,2849406,0,0,0,0,0,0
[NT-INFO] Network Stats,8,9,lo,254696,1270,0,0,0,0,0,0,254696,1270,0,0,0,0,0,0
[PI-INFO] Paramount Iteration,4,9,64.311428,4.191977
[RU-INFO] Resources Stats,4,9,42.992491,20.848599,1604112,0,0,0,2512,1,0,72,0,0,0,0,2244,2137
[NT-INFO] Network Stats,4,9,ens4,75146709906,2888724,0,0,0,0,0,0,74760346771,2822376,0,0,0,0,0,0
[NT-INFO] Network Stats,4,9,lo,255996,1295,0,0,0,0,0,0,255996,1295,0,0,0,0,0,0
[PI-INFO] Paramount Iteration,11,9,64.314693,4.201490
[RU-INFO] Resources Stats,11,9,43.000006,20.846307,1604160,0,0,0,2542,0,0,0,0,0,0,0,2212,2085
[NT-INFO] Network Stats,11,9,ens4,75295340645,2907986,0,0,0,0,0,0,74634266033,2849415,0,0,0,0,0,0
[NT-INFO] Network Stats,11,9,lo,254696,1270,0,0,0,0,0,0,254696,1270,0,0,0,0,0,0
[PI-INFO] Paramount Iteration,1,9,64.342076,4.185400
[RU-INFO] Resources Stats,1,9,43.945175,19.862723,1595992,0,0,0,2528,0,0,0,0,0,0,0,2126,2169
[NT-INFO] Network Stats,1,9,ens4,75020107548,3017268,0,0,0,0,0,0,75359082543,2877318,0,0,0,0,0,0
[NT-INFO] Network Stats,1,9,lo,250296,1206,0,0,0,0,0,0,250296,1206,0,0,0,0,0,0
[PI-INFO] Paramount Iteration,12,9,64.357172,4.199222
[RU-INFO] Resources Stats,12,9,43.100840,20.760844,1587872,0,0,0,2507,1,0,72,0,0,0,0,2130,3252
[NT-INFO] Network Stats,12,9,ens4,74938971979,3003979,0,0,0,0,0,0,74922592249,2767619,0,0,0,0,0,0
[NT-INFO] Network Stats,12,9,lo,254124,1259,0,0,0,0,0,0,254124,1259,0,0,0,0,0,0
[PI-INFO] Paramount Iteration,3,9,64.375607,4.200078
[RU-INFO] Resources Stats,3,9,44.411793,19.437405,1590024,0,0,0,2522,0,0,0,0,0,0,0,2145,2447
[NT-INFO] Network Stats,3,9,ens4,75020108483,3017272,0,0,0,0,0,0,75359082807,2877322,0,0,0,0,0,0
[NT-INFO] Network Stats,3,9,lo,250296,1206,0,0,0,0,0,0,250296,1206,0,0,0,0,0,0
[PI-INFO] Paramount Iteration,13,9,64.379053,4.188963
[RU-INFO] Resources Stats,13,9,44.064423,19.749298,1577548,0,0,0,2519,0,0,0,0,0,0,0,2143,2267
[NT-INFO] Network Stats,13,9,ens4,74938972243,3003983,0,0,0,0,0,0,74923111624,2767630,0,0,0,0,0,0
[NT-INFO] Network Stats,13,9,lo,254124,1259,0,0,0,0,0,0,254124,1259,0,0,0,0,0,0
[PI-INFO] Paramount Iteration,14,9,64.383273,4.196296
[RU-INFO] Resources Stats,14,9,43.632360,20.268734,1589852,0,0,0,2524,0,0,0,0,0,0,0,2144,2786
[NT-INFO] Network Stats,14,9,ens4,74938972507,3003987,0,0,0,0,0,0,74923191306,2767635,0,0,0,0,0,0
[NT-INFO] Network Stats,14,9,lo,254124,1259,0,0,0,0,0,0,254124,1259,0,0,0,0,0,0
[PI-INFO] Paramount Iteration,15,9,64.633067,4.210119
[RU-INFO] Resources Stats,15,9,45.531347,18.604464,1585664,0,0,0,2521,0,0,0,0,0,0,0,2161,2402
[NT-INFO] Network Stats,15,9,ens4,74938972771,3003991,0,0,0,0,0,0,74923192074,2767639,0,0,0,0,0,0
[NT-INFO] Network Stats,15,9,lo,254124,1259,0,0,0,0,0,0,254124,1259,0,0,0,0,0,0
[PI-INFO] Paramount Iteration,0,9,64.646839,4.221466
[RU-INFO] Resources Stats,0,9,45.447938,18.711034,1594204,0,0,0,2526,1,0,72,0,0,0,0,2143,3241
[NT-INFO] Network Stats,0,9,ens4,75020111285,3017284,0,0,0,0,0,0,75359083599,2877334,0,0,0,0,0,0
[NT-INFO] Network Stats,0,9,lo,250296,1206,0,0,0,0,0,0,250296,1206,0,0,0,0,0,0
        10
[PI-INFO] Paramount Iteration,10,10,68.951805,4.656208
[RU-INFO] Resources Stats,10,10,45.621633,22.866804,1588260,0,0,0,2535,0,0,0,0,0,0,0,2195,2593
[NT-INFO] Network Stats,10,10,ens4,76958104677,2982217,0,0,0,0,0,0,76267398639,2915288,0,0,0,0,0,0
[NT-INFO] Network Stats,10,10,lo,254696,1270,0,0,0,0,0,0,254696,1270,0,0,0,0,0,0
[PI-INFO] Paramount Iteration,9,10,68.959482,4.668761
[RU-INFO] Resources Stats,9,10,45.334367,23.159079,1573364,0,0,0,2506,0,0,0,0,0,0,0,2205,2565
[NT-INFO] Network Stats,9,10,ens4,76958104941,2982221,0,0,0,0,0,0,76268498232,2915309,0,0,0,0,0,0
[NT-INFO] Network Stats,9,10,lo,254696,1270,0,0,0,0,0,0,254696,1270,0,0,0,0,0,0
[PI-INFO] Paramount Iteration,11,10,68.973303,4.658610
[RU-INFO] Resources Stats,11,10,45.453600,23.046670,1604160,0,0,0,2542,0,0,0,0,0,0,0,2212,2275
[NT-INFO] Network Stats,11,10,ens4,76958105205,2982225,0,0,0,0,0,0,76268499000,2915313,0,0,0,0,0,0
[NT-INFO] Network Stats,11,10,lo,254696,1270,0,0,0,0,0,0,254696,1270,0,0,0,0,0,0
[PI-INFO] Paramount Iteration,6,10,68.983039,4.721362
[RU-INFO] Resources Stats,6,10,45.633649,22.864801,1573368,0,0,0,2523,0,0,0,0,0,0,0,2264,3372
[NT-INFO] Network Stats,6,10,ens4,76784598102,2960511,0,0,0,0,0,0,76406303579,2885933,0,0,0,0,0,0
[NT-INFO] Network Stats,6,10,lo,255996,1295,0,0,0,0,0,0,255996,1295,0,0,0,0,0,0
[PI-INFO] Paramount Iteration,4,10,68.988312,4.676884
[RU-INFO] Resources Stats,4,10,45.452463,23.060058,1604112,0,0,0,2512,1,0,72,0,0,0,0,2244,2373
[NT-INFO] Network Stats,4,10,ens4,76784598366,2960515,0,0,0,0,0,0,76406304413,2885938,0,0,0,0,0,0
[NT-INFO] Network Stats,4,10,lo,255996,1295,0,0,0,0,0,0,255996,1295,0,0,0,0,0,0
[PI-INFO] Paramount Iteration,2,10,68.988341,4.687516
[RU-INFO] Resources Stats,2,10,46.180775,22.332637,1579812,0,0,0,2528,0,0,0,0,0,0,0,2171,2986
[NT-INFO] Network Stats,2,10,ens4,76656945951,3088524,0,0,0,0,0,0,77001535018,2941566,0,0,0,0,0,0
[NT-INFO] Network Stats,2,10,lo,250296,1206,0,0,0,0,0,0,250296,1206,0,0,0,0,0,0
[PI-INFO] Paramount Iteration,7,10,68.992552,4.710622
[RU-INFO] Resources Stats,7,10,45.252261,23.257855,1585744,0,0,0,2514,0,0,0,0,0,0,0,2171,2176
[NT-INFO] Network Stats,7,10,ens4,76784598630,2960519,0,0,0,0,0,0,76406594086,2885946,0,0,0,0,0,0
[NT-INFO] Network Stats,7,10,lo,255996,1295,0,0,0,0,0,0,255996,1295,0,0,0,0,0,0
[PI-INFO] Paramount Iteration,5,10,68.997942,4.710617
[RU-INFO] Resources Stats,5,10,45.928395,22.590357,1591856,0,0,0,2527,0,0,0,0,0,0,0,2226,2960
[NT-INFO] Network Stats,5,10,ens4,76784598894,2960523,0,0,0,0,0,0,76406594854,2885950,0,0,0,0,0,0
[NT-INFO] Network Stats,5,10,lo,255996,1295,0,0,0,0,0,0,255996,1295,0,0,0,0,0,0
[PI-INFO] Paramount Iteration,8,10,69.000053,4.695431
[RU-INFO] Resources Stats,8,10,45.195880,23.317492,1608320,0,0,0,2530,1,0,72,0,0,0,0,2227,3406
[NT-INFO] Network Stats,8,10,ens4,76958105469,2982229,0,0,0,0,0,0,76268984649,2915324,0,0,0,0,0,0
[NT-INFO] Network Stats,8,10,lo,254696,1270,0,0,0,0,0,0,254696,1270,0,0,0,0,0,0
[PI-INFO] Paramount Iteration,12,10,69.015359,4.658187
[RU-INFO] Resources Stats,12,10,45.490390,23.021064,1587872,0,0,0,2507,1,0,72,0,0,0,0,2130,3579
[NT-INFO] Network Stats,12,10,ens4,76574973431,3077978,0,0,0,0,0,0,76571590094,2831892,0,0,0,0,0,0
[NT-INFO] Network Stats,12,10,lo,254124,1259,0,0,0,0,0,0,254124,1259,0,0,0,0,0,0
[PI-INFO] Paramount Iteration,1,10,69.031516,4.689440
[RU-INFO] Resources Stats,1,10,46.483491,21.995759,1595992,0,0,0,2531,0,0,0,0,0,0,0,2126,2336
[NT-INFO] Network Stats,1,10,ens4,76656949789,3088541,0,0,0,0,0,0,77001536140,2941583,0,0,0,0,0,0
[NT-INFO] Network Stats,1,10,lo,250296,1206,0,0,0,0,0,0,250296,1206,0,0,0,0,0,0
[PI-INFO] Paramount Iteration,3,10,69.035108,4.659501
[RU-INFO] Resources Stats,3,10,46.978250,21.524202,1590024,0,0,0,2522,0,0,0,0,0,0,0,2145,2655
[NT-INFO] Network Stats,3,10,ens4,76656949789,3088541,0,0,0,0,0,0,77001536140,2941583,0,0,0,0,0,0
[NT-INFO] Network Stats,3,10,lo,250296,1206,0,0,0,0,0,0,250296,1206,0,0,0,0,0,0
[PI-INFO] Paramount Iteration,14,10,69.037922,4.654649
[RU-INFO] Resources Stats,14,10,46.122459,22.427470,1589852,0,0,0,2531,0,0,0,0,0,0,0,2144,3008
[NT-INFO] Network Stats,14,10,ens4,76574973695,3077982,0,0,0,0,0,0,76572044638,2831902,0,0,0,0,0,0
[NT-INFO] Network Stats,14,10,lo,254124,1259,0,0,0,0,0,0,254124,1259,0,0,0,0,0,0
[PI-INFO] Paramount Iteration,13,10,69.040128,4.661075
[RU-INFO] Resources Stats,13,10,46.681998,21.779073,1577548,0,0,0,2519,0,0,0,0,0,0,0,2143,2480
[NT-INFO] Network Stats,13,10,ens4,76574973893,3077985,0,0,0,0,0,0,76572469761,2831912,0,0,0,0,0,0
[NT-INFO] Network Stats,13,10,lo,254124,1259,0,0,0,0,0,0,254124,1259,0,0,0,0,0,0
[PI-INFO] Paramount Iteration,15,10,69.349844,4.716777
[RU-INFO] Resources Stats,15,10,48.166687,20.678285,1585664,0,0,0,2521,0,0,0,0,0,0,0,2161,2611
[NT-INFO] Network Stats,15,10,ens4,76574974223,3077990,0,0,0,0,0,0,76572470532,2831916,0,0,0,0,0,0
[NT-INFO] Network Stats,15,10,lo,254124,1259,0,0,0,0,0,0,254124,1259,0,0,0,0,0,0
[PI-INFO] Paramount Iteration,0,10,69.366704,4.719865
[RU-INFO] Resources Stats,0,10,48.091741,20.767252,1594204,0,0,0,2526,1,0,72,0,0,0,0,2143,3536
[NT-INFO] Network Stats,0,10,ens4,76656952699,3088554,0,0,0,0,0,0,77001536932,2941595,0,0,0,0,0,0
[NT-INFO] Network Stats,0,10,lo,250296,1206,0,0,0,0,0,0,250296,1206,0,0,0,0,0,0
[PI-INFO] PI avg,10,4.478248,10
[PI-INFO] Beta,10,1.630603
[PI-INFO] PI avg,11,4.476998,10
[PI-INFO] Beta,11,1.631020
[PI-INFO] PI avg,7,4.481119,10
[PI-INFO] Beta,7,1.630433
[PI-INFO] PI avg,9,4.480557,10
[PI-INFO] Beta,9,1.633653
[PI-INFO] PI avg,6,4.481354,10
[PI-INFO] Beta,6,1.634483
[PI-INFO] PI avg,2,4.475824,10
[PI-INFO] Beta,2,1.638723
[PI-INFO] PI avg,3,4.471300,10
[PI-INFO] Beta,3,1.640340
[PI-INFO] PI avg,5,4.480764,10
[PI-INFO] Beta,5,1.637191
[PI-INFO] PI avg,4,4.475095,10
[PI-INFO] Beta,4,1.639344
[PI-INFO] PI avg,1,4.475126,10
[PI-INFO] Beta,1,1.641984
[PI-INFO] PI avg,13,4.474717,10
[PI-INFO] Beta,13,1.645447
[PI-INFO] PI avg,15,4.478367,10
[PI-INFO] Beta,15,1.647191


 IS Benchmark Completed
 Class           =                        D
 Size            =               2147483648
 Iterations      =                       10
 Time in seconds =                    44.82
 Total processes =                       16
 Active procs    =                       16
 Mop/s total     =                   479.11
 Mop/s/process   =                    29.94
 Operation type  =              keys ranked
 Verification    =               SUCCESSFUL
 Version         =                      3.4
 Compile date    =              24 May 2021

 Compile options:
    MPICC        = mpicc
    CLINK        = $(MPICC)
    CMPI_LIB     = (none)
    CMPI_INC     = (none)
    CFLAGS       = -O3
    CLINKFLAGS   = $(CFLAGS) -O ../../utils/obj/*.o
[PI-INFO] PI avg,12,4.475539,10
[PI-INFO] Beta,12,1.648677


 Please send feedbacks and/or the results of this run to:

 NPB Development Team
 npb@nas.nasa.gov


[PI-INFO] PI avg,0,4.478364,10
[PI-INFO] Beta,0,1.647670
[PI-INFO] Total time,73.788647
[PI-INFO] PI avg,14,4.474212,10
[PI-INFO] Beta,14,1.649097
[PI-INFO] PI avg,8,4.482172,10
[PI-INFO] Beta,8,1.646257
