

 NAS Parallel Benchmarks 3.4 -- FT Benchmark

 No input file inputft.data. Using compiled defaults
 Size                :  512x 512x 512  (class C)
 Iterations          :             20
 Number of processes :              8
 Processor array     :         1x   8
 Layout type         :             1D

 Initialization time =      3.6511

[PI-INFO] Init time,1,7.727172
[PI-INFO] Init time,0,7.733570
[PI-INFO] Init time,5,7.732761
[PI-INFO] Init time,6,7.738424
[PI-INFO] Init time,4,7.738865
[PI-INFO] Init time,7,7.737581
[PI-INFO] Init time,2,7.741346
[PI-INFO] Init time,3,7.763757
[PI-INFO] Paramount Iteration,6,1,10.928152,3.189728
[RU-INFO] Resources Stats,6,1,7.988744,2.521497,933736,0,0,0,3800,1,0,152,0,0,0,0,2169,566
[PI-INFO] Paramount Iteration,7,1,10.926787,3.189206
[RU-INFO] Resources Stats,7,1,7.873707,2.641914,933800,0,0,0,3800,0,0,0,8,0,0,0,2196,394
[NT-INFO] Network Stats,7,1,ens4,42407478083,1725492,0,0,0,0,0,0,41304428500,1606805,0,0,0,0,0,0
[NT-INFO] Network Stats,7,1,lo,180792,1030,0,0,0,0,0,0,180792,1030,0,0,0,0,0,0
[NT-INFO] Network Stats,6,1,ens4,42407478083,1725492,0,0,0,0,0,0,41304428500,1606805,0,0,0,0,0,0
[NT-INFO] Network Stats,6,1,lo,180792,1030,0,0,0,0,0,0,180792,1030,0,0,0,0,0,0
[PI-INFO] Paramount Iteration,5,1,10.938689,3.205928
[RU-INFO] Resources Stats,5,1,7.692657,2.822371,933952,0,0,0,3798,0,0,0,0,0,0,0,2221,395
[NT-INFO] Network Stats,5,1,ens4,58938839155,2288007,0,0,0,0,0,0,58258935793,2080083,0,0,0,0,0,0
[NT-INFO] Network Stats,5,1,lo,181418,1039,0,0,0,0,0,0,181418,1039,0,0,0,0,0,0
[PI-INFO] Paramount Iteration,4,1,10.945437,3.206572
[RU-INFO] Resources Stats,4,1,7.872380,2.652128,933760,0,0,0,3797,1,0,144,8,0,0,0,2274,549
[NT-INFO] Network Stats,4,1,ens4,58938839221,2288008,0,0,0,0,0,0,58259001553,2080088,0,0,0,0,0,0
[NT-INFO] Network Stats,4,1,lo,181418,1039,0,0,0,0,0,0,181418,1039,0,0,0,0,0,0
[PI-INFO] Paramount Iteration,1,1,10.993740,3.266568
[RU-INFO] Resources Stats,1,1,7.990397,2.590183,933680,0,0,0,3792,1,0,16,0,0,0,0,2148,354
[NT-INFO] Network Stats,1,1,ens4,43965432687,1851053,0,0,0,0,0,0,45467577592,1742773,0,0,0,0,0,0
[NT-INFO] Network Stats,1,1,lo,178916,974,0,0,0,0,0,0,178916,974,0,0,0,0,0,0
 T =    1     Checksum =    5.195078707457D+02    5.149019699238D+02
[PI-INFO] Paramount Iteration,2,1,11.018168,3.276822
[PI-INFO] Paramount Iteration,3,1,11.016851,3.253094
[RU-INFO] Resources Stats,2,1,8.086285,2.518220,933856,0,0,0,3804,1,0,144,0,0,0,0,2144,524
[NT-INFO] Network Stats,2,1,lo,183146,1046,0,0,0,0,0,0,183146,1046,0,0,0,0,0,0
[NT-INFO] Network Stats,2,1,ens4,61148376095,2310439,0,0,0,0,0,0,60702468492,2119588,0,0,0,0,0,0
[RU-INFO] Resources Stats,3,1,8.058280,2.523703,934144,0,0,0,3802,0,0,0,0,0,0,0,2108,428
[NT-INFO] Network Stats,3,1,lo,183146,1046,0,0,0,0,0,0,183146,1046,0,0,0,0,0,0
[NT-INFO] Network Stats,3,1,ens4,61148376095,2310439,0,0,0,0,0,0,60702468492,2119588,0,0,0,0,0,0
[PI-INFO] Paramount Iteration,0,1,11.019375,3.285805
[RU-INFO] Resources Stats,0,1,7.871466,2.722431,934000,0,0,0,3812,2,0,264,0,0,0,0,2231,566
[NT-INFO] Network Stats,0,1,ens4,43965434341,1851060,0,0,0,0,0,0,45467577856,1742777,0,0,0,0,0,0
[NT-INFO] Network Stats,0,1,lo,178916,974,0,0,0,0,0,0,178916,974,0,0,0,0,0,0
[PI-INFO] Paramount Iteration,7,2,14.189728,3.262941
[PI-INFO] Paramount Iteration,6,2,14.191112,3.262960
[RU-INFO] Resources Stats,6,2,10.379430,3.389120,933736,0,0,0,3802,1,0,152,0,0,0,0,2169,749
[NT-INFO] Network Stats,6,2,ens4,42816634985,1742087,0,0,0,0,0,0,41712263465,1621683,0,0,0,0,0,0
[RU-INFO] Resources Stats,7,2,10.223939,3.553369,933800,0,0,0,3800,0,0,0,8,0,0,0,2196,446
[NT-INFO] Network Stats,7,2,ens4,42816634985,1742087,0,0,0,0,0,0,41712068963,1621680,0,0,0,0,0,0
[NT-INFO] Network Stats,7,2,lo,180792,1030,0,0,0,0,0,0,180792,1030,0,0,0,0,0,0
[NT-INFO] Network Stats,6,2,lo,180792,1030,0,0,0,0,0,0,180792,1030,0,0,0,0,0,0
[PI-INFO] Paramount Iteration,5,2,14.355107,3.416418
[RU-INFO] Resources Stats,5,2,10.032181,3.897853,933952,0,0,0,3798,0,0,0,0,0,0,0,2221,457
[NT-INFO] Network Stats,5,2,ens4,59353114791,2307012,0,0,0,0,0,0,58671352957,2096067,0,0,0,0,0,0
[NT-INFO] Network Stats,5,2,lo,181418,1039,0,0,0,0,0,0,181418,1039,0,0,0,0,0,0
[PI-INFO] Paramount Iteration,4,2,14.377959,3.432522
[RU-INFO] Resources Stats,4,2,10.350615,3.600910,933760,0,0,0,3801,1,0,144,8,0,0,0,2274,748
[NT-INFO] Network Stats,4,2,ens4,59353114857,2307013,0,0,0,0,0,0,58671418718,2096072,0,0,0,0,0,0
[NT-INFO] Network Stats,4,2,lo,181418,1039,0,0,0,0,0,0,181418,1039,0,0,0,0,0,0
[PI-INFO] Paramount Iteration,1,2,14.402495,3.408755
[RU-INFO] Resources Stats,1,2,10.548234,3.437469,933680,0,0,0,3798,1,0,16,0,0,0,0,2148,525
[NT-INFO] Network Stats,1,2,ens4,44372616497,1869465,0,0,0,0,0,0,45886005336,1759501,0,0,0,0,0,0
[NT-INFO] Network Stats,1,2,lo,178916,974,0,0,0,0,0,0,178916,974,0,0,0,0,0,0
 T =    2     Checksum =    5.155422171134D+02    5.127578201997D+02
[PI-INFO] Paramount Iteration,2,2,14.461218,3.443050
[RU-INFO] Resources Stats,2,2,10.559934,3.485337,933856,0,0,0,3805,1,0,144,0,0,0,0,2144,585
[PI-INFO] Paramount Iteration,3,2,14.459902,3.443051
[NT-INFO] Network Stats,2,2,lo,183146,1046,0,0,0,0,0,0,183146,1046,0,0,0,0,0,0
[NT-INFO] Network Stats,2,2,ens4,61563236585,2328206,0,0,0,0,0,0,61108772642,2135793,0,0,0,0,0,0
[RU-INFO] Resources Stats,3,2,10.570289,3.446225,934144,0,0,0,3802,0,0,0,0,0,0,0,2108,608
[NT-INFO] Network Stats,3,2,lo,183146,1046,0,0,0,0,0,0,183146,1046,0,0,0,0,0,0
[NT-INFO] Network Stats,3,2,ens4,61563236585,2328206,0,0,0,0,0,0,61108772642,2135793,0,0,0,0,0,0
[PI-INFO] Paramount Iteration,0,2,14.462687,3.443312
[RU-INFO] Resources Stats,0,2,10.279413,3.751786,934000,0,0,0,3812,2,0,264,0,0,0,0,2231,693
[NT-INFO] Network Stats,0,2,ens4,44372618153,1869472,0,0,0,0,0,0,45886005600,1759505,0,0,0,0,0,0
[NT-INFO] Network Stats,0,2,lo,178916,974,0,0,0,0,0,0,178916,974,0,0,0,0,0,0
[PI-INFO] Paramount Iteration,7,3,17.441049,3.251321
[RU-INFO] Resources Stats,7,3,12.629824,4.398028,933800,0,0,0,3800,0,0,0,8,0,0,0,2196,472
[NT-INFO] Network Stats,7,3,ens4,43227913989,1758739,0,0,0,0,0,0,42115862729,1636472,0,0,0,0,0,0
[NT-INFO] Network Stats,7,3,lo,180792,1030,0,0,0,0,0,0,180792,1030,0,0,0,0,0,0
[PI-INFO] Paramount Iteration,1,3,17.451123,3.048628
[RU-INFO] Resources Stats,1,3,12.876054,4.157434,933680,0,0,0,3799,1,0,16,0,0,0,0,2148,545
[NT-INFO] Network Stats,1,3,ens4,44780080526,1888809,0,0,0,0,0,0,46304836196,1776541,0,0,0,0,0,0
[NT-INFO] Network Stats,1,3,lo,178916,974,0,0,0,0,0,0,178916,974,0,0,0,0,0,0
[PI-INFO] Paramount Iteration,6,3,17.610200,3.419088
[RU-INFO] Resources Stats,6,3,12.886148,4.296716,933736,0,0,0,3802,1,0,152,0,0,0,0,2169,937
[NT-INFO] Network Stats,6,3,ens4,43227914253,1758743,0,0,0,0,0,0,42116243013,1636481,0,0,0,0,0,0
[NT-INFO] Network Stats,6,3,lo,180792,1030,0,0,0,0,0,0,180792,1030,0,0,0,0,0,0
[PI-INFO] Paramount Iteration,5,3,17.623375,3.268268
[RU-INFO] Resources Stats,5,3,12.389471,4.806363,933952,0,0,0,3798,0,0,0,0,0,0,0,2221,560
[NT-INFO] Network Stats,5,3,ens4,59766099657,2326836,0,0,0,0,0,0,59082549549,2112702,0,0,0,0,0,0
[NT-INFO] Network Stats,5,3,lo,181418,1039,0,0,0,0,0,0,181418,1039,0,0,0,0,0,0
[PI-INFO] Paramount Iteration,4,3,17.627142,3.249183
[RU-INFO] Resources Stats,4,3,12.732048,4.464017,933760,0,0,0,3801,1,0,144,8,0,0,0,2274,930
[NT-INFO] Network Stats,4,3,ens4,59766099789,2326838,0,0,0,0,0,0,59082864999,2112710,0,0,0,0,0,0
[NT-INFO] Network Stats,4,3,lo,181418,1039,0,0,0,0,0,0,181418,1039,0,0,0,0,0,0
 T =    3     Checksum =    5.144678022222D+02    5.122251847514D+02
[PI-INFO] Paramount Iteration,2,3,17.688668,3.227450
[PI-INFO] Paramount Iteration,3,3,17.687345,3.227443
[RU-INFO] Resources Stats,3,3,12.922704,4.312985,934144,0,0,0,3805,0,0,0,0,0,0,0,2108,763
[NT-INFO] Network Stats,3,3,lo,183146,1046,0,0,0,0,0,0,183146,1046,0,0,0,0,0,0
[NT-INFO] Network Stats,3,3,ens4,61978559431,2347033,0,0,0,0,0,0,61520934698,2152258,0,0,0,0,0,0
[RU-INFO] Resources Stats,2,3,12.986064,4.282042,933856,0,0,0,3806,1,0,144,0,0,0,0,2144,699
[NT-INFO] Network Stats,2,3,lo,183146,1046,0,0,0,0,0,0,183146,1046,0,0,0,0,0,0
[NT-INFO] Network Stats,2,3,ens4,61978559431,2347033,0,0,0,0,0,0,61520934698,2152258,0,0,0,0,0,0
[PI-INFO] Paramount Iteration,0,3,17.689847,3.227160
[RU-INFO] Resources Stats,0,3,12.642505,4.607455,934000,0,0,0,3812,2,0,264,0,0,0,0,2231,933
[NT-INFO] Network Stats,0,3,ens4,44780084098,1888825,0,0,0,0,0,0,46304836934,1776552,0,0,0,0,0,0
[NT-INFO] Network Stats,0,3,lo,178916,974,0,0,0,0,0,0,178916,974,0,0,0,0,0,0
[PI-INFO] Paramount Iteration,5,4,20.772955,3.149580
[RU-INFO] Resources Stats,5,4,14.768563,5.574173,933952,0,0,0,3799,0,0,0,0,0,0,0,2221,668
[NT-INFO] Network Stats,5,4,ens4,60174542029,2344228,0,0,0,0,0,0,59491097081,2128841,0,0,0,0,0,0
[NT-INFO] Network Stats,5,4,lo,181418,1039,0,0,0,0,0,0,181418,1039,0,0,0,0,0,0
[PI-INFO] Paramount Iteration,1,4,20.787714,3.336591
[RU-INFO] Resources Stats,1,4,15.399675,4.969313,933680,0,0,0,3799,1,0,16,0,0,0,0,2148,577
[NT-INFO] Network Stats,1,4,ens4,45190276630,1907959,0,0,0,0,0,0,46716315168,1793397,0,0,0,0,0,0
[NT-INFO] Network Stats,1,4,lo,178916,974,0,0,0,0,0,0,178916,974,0,0,0,0,0,0
[PI-INFO] Paramount Iteration,3,4,20.797113,3.109768
[RU-INFO] Resources Stats,3,4,15.330693,5.009038,934144,0,0,0,3806,0,0,0,0,0,0,0,2108,820
[NT-INFO] Network Stats,3,4,lo,183146,1046,0,0,0,0,0,0,183146,1046,0,0,0,0,0,0
[NT-INFO] Network Stats,3,4,ens4,62385733043,2364809,0,0,0,0,0,0,61935082986,2167777,0,0,0,0,0,0
[PI-INFO] Paramount Iteration,2,4,20.799218,3.110550
[RU-INFO] Resources Stats,2,4,15.360794,5.012343,933856,0,0,0,3806,1,0,144,0,0,0,0,2144,884
[NT-INFO] Network Stats,2,4,lo,183146,1046,0,0,0,0,0,0,183146,1046,0,0,0,0,0,0
[NT-INFO] Network Stats,2,4,ens4,62385733175,2364811,0,0,0,0,0,0,61935268816,2167784,0,0,0,0,0,0
 T =    4     Checksum =    5.140150594328D+02    5.121090289018D+02
[PI-INFO] Paramount Iteration,7,4,20.799391,3.358342
[PI-INFO] Paramount Iteration,6,4,20.800768,3.190568
[RU-INFO] Resources Stats,6,4,15.266358,5.096787,933736,0,0,0,3805,1,0,152,0,0,0,0,2169,1104
[NT-INFO] Network Stats,6,4,ens4,43642947349,1777351,0,0,0,0,0,0,42522384359,1652366,0,0,0,0,0,0
[NT-INFO] Network Stats,6,4,lo,180792,1030,0,0,0,0,0,0,180792,1030,0,0,0,0,0,0
[PI-INFO] Paramount Iteration,0,4,20.801635,3.111788
[RU-INFO] Resources Stats,0,4,14.970454,5.383444,934000,0,0,0,3813,2,0,264,0,0,0,0,2231,1195
[NT-INFO] Network Stats,0,4,ens4,45190278390,1907967,0,0,0,0,0,0,46716315564,1793403,0,0,0,0,0,0
[NT-INFO] Network Stats,0,4,lo,178916,974,0,0,0,0,0,0,178916,974,0,0,0,0,0,0
[PI-INFO] Paramount Iteration,4,4,20.801121,3.173979
[RU-INFO] Resources Stats,7,4,15.038870,5.345020,933800,0,0,0,3801,0,0,0,8,0,0,0,2196,575
[RU-INFO] Resources Stats,4,4,15.090594,5.275508,933760,0,0,0,3801,1,0,144,8,0,0,0,2274,1063
[NT-INFO] Network Stats,7,4,ens4,43642947349,1777351,0,0,0,0,0,0,42522384359,1652366,0,0,0,0,0,0
[NT-INFO] Network Stats,7,4,lo,180792,1030,0,0,0,0,0,0,180792,1030,0,0,0,0,0,0
[NT-INFO] Network Stats,4,4,ens4,60174542265,2344231,0,0,0,0,0,0,59491144373,2128846,0,0,0,0,0,0
[NT-INFO] Network Stats,4,4,lo,181418,1039,0,0,0,0,0,0,181418,1039,0,0,0,0,0,0
[PI-INFO] Paramount Iteration,6,5,23.823492,3.022724
[PI-INFO] Paramount Iteration,7,5,23.822124,3.022733
[RU-INFO] Resources Stats,7,5,17.400954,6.004329,933800,0,0,0,3802,0,0,0,8,0,0,0,2196,616
[NT-INFO] Network Stats,7,5,ens4,44056257239,1795470,0,0,0,0,0,0,42929558454,1667471,0,0,0,0,0,0
[NT-INFO] Network Stats,7,5,lo,180792,1030,0,0,0,0,0,0,180792,1030,0,0,0,0,0,0
[RU-INFO] Resources Stats,6,5,17.604843,5.776276,933736,0,0,0,3807,1,0,152,0,0,0,0,2169,1302
[NT-INFO] Network Stats,6,5,ens4,44056257239,1795470,0,0,0,0,0,0,42929558454,1667471,0,0,0,0,0,0
[NT-INFO] Network Stats,6,5,lo,180792,1030,0,0,0,0,0,0,180792,1030,0,0,0,0,0,0
[PI-INFO] Paramount Iteration,5,5,24.023686,3.250731
[RU-INFO] Resources Stats,5,5,17.206267,6.385419,933952,0,0,0,3800,0,0,0,0,0,0,0,2221,730
[NT-INFO] Network Stats,5,5,ens4,60587705853,2362638,0,0,0,0,0,0,59901217822,2145784,0,0,0,0,0,0
[NT-INFO] Network Stats,5,5,lo,181418,1039,0,0,0,0,0,0,181418,1039,0,0,0,0,0,0
[PI-INFO] Paramount Iteration,1,5,24.032187,3.244473
[RU-INFO] Resources Stats,1,5,17.786683,5.824948,933680,0,0,0,3799,1,0,16,0,0,0,0,2148,604
[NT-INFO] Network Stats,1,5,ens4,45598310105,1926955,0,0,0,0,0,0,47127528206,1810286,0,0,0,0,0,0
[NT-INFO] Network Stats,1,5,lo,178916,974,0,0,0,0,0,0,178916,974,0,0,0,0,0,0
[PI-INFO] Paramount Iteration,4,5,24.039571,3.238450
[RU-INFO] Resources Stats,4,5,17.487728,6.111905,933760,0,0,0,3804,1,0,144,8,0,0,0,2274,1252
[NT-INFO] Network Stats,4,5,ens4,60587705985,2362640,0,0,0,0,0,0,59903485024,2145824,0,0,0,0,0,0
[NT-INFO] Network Stats,4,5,lo,181418,1039,0,0,0,0,0,0,181418,1039,0,0,0,0,0,0
 T =    5     Checksum =    5.137550426810D+02    5.121143685824D+02
[PI-INFO] Paramount Iteration,3,5,24.278081,3.480968
[PI-INFO] Paramount Iteration,2,5,24.279398,3.480180
[RU-INFO] Resources Stats,2,5,17.862342,5.987422,933856,0,0,0,3808,1,0,144,0,0,0,0,2144,969
[NT-INFO] Network Stats,2,5,lo,183146,1046,0,0,0,0,0,0,183146,1046,0,0,0,0,0,0
[NT-INFO] Network Stats,2,5,ens4,62795654447,2384047,0,0,0,0,0,0,62348400074,2184046,0,0,0,0,0,0
[RU-INFO] Resources Stats,3,5,17.786901,6.023500,934144,0,0,0,3810,0,0,0,0,0,0,0,2108,1024
[NT-INFO] Network Stats,3,5,lo,183146,1046,0,0,0,0,0,0,183146,1046,0,0,0,0,0,0
[NT-INFO] Network Stats,3,5,ens4,62795654447,2384047,0,0,0,0,0,0,62348400074,2184046,0,0,0,0,0,0
[PI-INFO] Paramount Iteration,0,5,24.280578,3.478943
[RU-INFO] Resources Stats,0,5,17.427571,6.398374,934000,0,0,0,3813,2,0,264,0,0,0,0,2231,1447
[NT-INFO] Network Stats,0,5,ens4,45598312164,1926964,0,0,0,0,0,0,47127528536,1810291,0,0,0,0,0,0
[NT-INFO] Network Stats,0,5,lo,178916,974,0,0,0,0,0,0,178916,974,0,0,0,0,0,0
[PI-INFO] Paramount Iteration,5,6,27.379644,3.355958
[RU-INFO] Resources Stats,5,6,19.642246,7.299915,933952,0,0,0,3800,0,0,0,0,0,0,0,2221,922
[NT-INFO] Network Stats,5,6,ens4,60995612827,2380471,0,0,0,0,0,0,60312783779,2162039,0,0,0,0,0,0
[NT-INFO] Network Stats,5,6,lo,181418,1039,0,0,0,0,0,0,181418,1039,0,0,0,0,0,0
[PI-INFO] Paramount Iteration,7,6,27.387217,3.565093
[PI-INFO] Paramount Iteration,4,6,27.388907,3.349336
[PI-INFO] Paramount Iteration,6,6,27.388586,3.565094
[RU-INFO] Resources Stats,6,6,20.108667,6.830867,933736,0,0,0,3807,1,0,152,0,0,0,0,2169,1524
[NT-INFO] Network Stats,6,6,ens4,44465873364,1814016,0,0,0,0,0,0,43336469518,1683001,0,0,0,0,0,0
[NT-INFO] Network Stats,6,6,lo,180792,1030,0,0,0,0,0,0,180792,1030,0,0,0,0,0,0
[RU-INFO] Resources Stats,4,6,19.926596,7.015505,933760,0,0,0,3804,1,0,144,8,0,0,0,2274,1382
[RU-INFO] Resources Stats,7,6,19.899259,7.065157,933800,0,0,0,3805,0,0,0,8,0,0,0,2196,692
[NT-INFO] Network Stats,4,6,ens4,60995612997,2380473,0,0,0,0,0,0,60312784638,2162044,0,0,0,0,0,0
[NT-INFO] Network Stats,7,6,ens4,44465873364,1814016,0,0,0,0,0,0,43336469518,1683001,0,0,0,0,0,0
[NT-INFO] Network Stats,4,6,lo,181418,1039,0,0,0,0,0,0,181418,1039,0,0,0,0,0,0
[NT-INFO] Network Stats,7,6,lo,180792,1030,0,0,0,0,0,0,180792,1030,0,0,0,0,0,0
[PI-INFO] Paramount Iteration,1,6,27.400625,3.368438
[RU-INFO] Resources Stats,1,6,20.261334,6.716464,933680,0,0,0,3799,1,0,16,0,0,0,0,2148,678
[NT-INFO] Network Stats,1,6,ens4,46007865113,1945588,0,0,0,0,0,0,47539093765,1827626,0,0,0,0,0,0
[NT-INFO] Network Stats,1,6,lo,178916,974,0,0,0,0,0,0,178916,974,0,0,0,0,0,0
 T =    6     Checksum =    5.135811056728D+02    5.121496764568D+02
[PI-INFO] Paramount Iteration,3,6,27.434829,3.156748
[PI-INFO] Paramount Iteration,2,6,27.436147,3.156749
[RU-INFO] Resources Stats,2,6,20.262512,6.735516,933856,0,0,0,3811,1,0,144,0,0,0,0,2144,1102
[NT-INFO] Network Stats,2,6,lo,183146,1046,0,0,0,0,0,0,183146,1046,0,0,0,0,0,0
[NT-INFO] Network Stats,2,6,ens4,63207017618,2402737,0,0,0,0,0,0,62758438653,2200032,0,0,0,0,0,0
[RU-INFO] Resources Stats,3,6,20.195819,6.762563,934144,0,0,0,3810,0,0,0,0,0,0,0,2108,1212
[NT-INFO] Network Stats,3,6,lo,183146,1046,0,0,0,0,0,0,183146,1046,0,0,0,0,0,0
[NT-INFO] Network Stats,3,6,ens4,63207017618,2402737,0,0,0,0,0,0,62758438653,2200032,0,0,0,0,0,0
[PI-INFO] Paramount Iteration,0,6,27.437344,3.156766
[RU-INFO] Resources Stats,0,6,19.765729,7.205714,934000,0,0,0,3813,2,0,264,0,0,0,0,2231,1700
[NT-INFO] Network Stats,0,6,ens4,46007866619,1945594,0,0,0,0,0,0,47539094161,1827632,0,0,0,0,0,0
[NT-INFO] Network Stats,0,6,lo,178916,974,0,0,0,0,0,0,178916,974,0,0,0,0,0,0
[PI-INFO] Paramount Iteration,1,7,30.449277,3.048652
[RU-INFO] Resources Stats,1,7,22.663188,7.359839,933680,0,0,0,3800,1,0,16,0,0,0,0,2148,856
[NT-INFO] Network Stats,1,7,ens4,46419359545,1964811,0,0,0,0,0,0,47953871437,1845094,0,0,0,0,0,0
[NT-INFO] Network Stats,1,7,lo,178916,974,0,0,0,0,0,0,178916,974,0,0,0,0,0,0
[PI-INFO] Paramount Iteration,5,7,30.472554,3.092910
[RU-INFO] Resources Stats,5,7,21.925457,8.107664,933952,0,0,0,3800,0,0,0,0,0,0,0,2221,998
[NT-INFO] Network Stats,5,7,ens4,61409538021,2399727,0,0,0,0,0,0,60724862413,2179703,0,0,0,0,0,0
[NT-INFO] Network Stats,5,7,lo,181418,1039,0,0,0,0,0,0,181418,1039,0,0,0,0,0,0
[PI-INFO] Paramount Iteration,2,7,30.502251,3.066104
[RU-INFO] Resources Stats,2,7,22.609847,7.451335,933856,0,0,0,3812,1,0,144,0,0,0,0,2144,1202
[NT-INFO] Network Stats,2,7,lo,183146,1046,0,0,0,0,0,0,183146,1046,0,0,0,0,0,0
[PI-INFO] Paramount Iteration,3,7,30.500929,3.066100
[NT-INFO] Network Stats,2,7,ens4,63615380450,2421673,0,0,0,0,0,0,63172109408,2216185,0,0,0,0,0,0
[RU-INFO] Resources Stats,3,7,22.544232,7.469474,934144,0,0,0,3810,0,0,0,0,0,0,0,2108,1391
[NT-INFO] Network Stats,3,7,lo,183146,1046,0,0,0,0,0,0,183146,1046,0,0,0,0,0,0
[NT-INFO] Network Stats,3,7,ens4,63615380450,2421673,0,0,0,0,0,0,63172109408,2216185,0,0,0,0,0,0
[PI-INFO] Paramount Iteration,7,7,30.508942,3.121725
[RU-INFO] Resources Stats,7,7,22.343546,7.741228,933800,0,0,0,3805,0,0,0,8,0,0,0,2196,733
[NT-INFO] Network Stats,7,7,ens4,44880115956,1831308,0,0,0,0,0,0,43743072857,1698281,0,0,0,0,0,0
[NT-INFO] Network Stats,7,7,lo,180792,1030,0,0,0,0,0,0,180792,1030,0,0,0,0,0,0
 T =    7     Checksum =    5.134569343165D+02    5.121870921893D+02
[PI-INFO] Paramount Iteration,6,7,30.521656,3.133070
[RU-INFO] Resources Stats,6,7,22.505731,7.561893,933736,0,0,0,3808,1,0,152,0,0,0,0,2169,1727
[PI-INFO] Paramount Iteration,4,7,30.522036,3.133129
[NT-INFO] Network Stats,6,7,ens4,44880116220,1831312,0,0,0,0,0,0,43743371477,1698290,0,0,0,0,0,0
[RU-INFO] Resources Stats,4,7,22.267325,7.802361,933760,0,0,0,3804,1,0,144,8,0,0,0,2274,1586
[PI-INFO] Paramount Iteration,0,7,30.522577,3.085233
[NT-INFO] Network Stats,6,7,lo,180792,1030,0,0,0,0,0,0,180792,1030,0,0,0,0,0,0
[NT-INFO] Network Stats,4,7,ens4,61409538257,2399730,0,0,0,0,0,0,60724928240,2179709,0,0,0,0,0,0
[RU-INFO] Resources Stats,0,7,22.078170,7.973894,934000,0,0,0,3816,2,0,264,0,0,0,0,2231,1795
[NT-INFO] Network Stats,4,7,lo,181418,1039,0,0,0,0,0,0,181418,1039,0,0,0,0,0,0
[NT-INFO] Network Stats,0,7,ens4,46419363366,1964828,0,0,0,0,0,0,47953872361,1845108,0,0,0,0,0,0
[NT-INFO] Network Stats,0,7,lo,178916,974,0,0,0,0,0,0,178916,974,0,0,0,0,0,0
[PI-INFO] Paramount Iteration,1,8,33.708622,3.259345
[RU-INFO] Resources Stats,1,8,25.083411,8.194580,933680,0,0,0,3800,1,0,16,0,0,0,0,2148,1068
[NT-INFO] Network Stats,1,8,ens4,46829574359,1984378,0,0,0,0,0,0,48367479825,1862646,0,0,0,0,0,0
[NT-INFO] Network Stats,1,8,lo,178916,974,0,0,0,0,0,0,178916,974,0,0,0,0,0,0
[PI-INFO] Paramount Iteration,5,8,33.717323,3.244769
[RU-INFO] Resources Stats,5,8,24.344186,8.931263,933952,0,0,0,3801,0,0,0,0,0,0,0,2221,1076
[NT-INFO] Network Stats,5,8,ens4,61823747889,2419298,0,0,0,0,0,0,61137437416,2197093,0,0,0,0,0,0
[NT-INFO] Network Stats,5,8,lo,181418,1039,0,0,0,0,0,0,181418,1039,0,0,0,0,0,0
[PI-INFO] Paramount Iteration,7,8,33.730845,3.221903
[RU-INFO] Resources Stats,7,8,24.755137,8.549083,933800,0,0,0,3809,0,0,0,8,0,0,0,2196,812
[NT-INFO] Network Stats,7,8,ens4,45295928994,1848991,0,0,0,0,0,0,44148585262,1714102,0,0,0,0,0,0
[NT-INFO] Network Stats,7,8,lo,180792,1030,0,0,0,0,0,0,180792,1030,0,0,0,0,0,0
[PI-INFO] Paramount Iteration,6,8,33.735762,3.214106
[RU-INFO] Resources Stats,6,8,24.896154,8.380012,933736,0,0,0,3808,1,0,152,0,0,0,0,2169,1903
[NT-INFO] Network Stats,6,8,ens4,45295929258,1848995,0,0,0,0,0,0,44149103926,1714117,0,0,0,0,0,0
[NT-INFO] Network Stats,6,8,lo,180792,1030,0,0,0,0,0,0,180792,1030,0,0,0,0,0,0
[PI-INFO] Paramount Iteration,4,8,33.736121,3.214085
[RU-INFO] Resources Stats,4,8,24.657099,8.621587,933760,0,0,0,3804,1,0,144,8,0,0,0,2274,1794
[NT-INFO] Network Stats,4,8,ens4,61823748125,2419301,0,0,0,0,0,0,61137503013,2197098,0,0,0,0,0,0
[NT-INFO] Network Stats,4,8,lo,181418,1039,0,0,0,0,0,0,181418,1039,0,0,0,0,0,0
 T =    8     Checksum =    5.133651975661D+02    5.122193250322D+02
[PI-INFO] Paramount Iteration,0,8,33.738221,3.215644
[RU-INFO] Resources Stats,0,8,24.442041,8.817850,934000,0,0,0,3817,2,0,264,0,0,0,0,2231,1889
[PI-INFO] Paramount Iteration,2,8,33.737151,3.234900
[RU-INFO] Resources Stats,2,8,25.095381,8.198570,933856,0,0,0,3812,1,0,144,0,0,0,0,2144,1243
[PI-INFO] Paramount Iteration,3,8,33.735826,3.234897
[RU-INFO] Resources Stats,3,8,24.965033,8.272413,934144,0,0,0,3813,0,0,0,0,0,0,0,2108,1623
[NT-INFO] Network Stats,3,8,lo,183146,1046,0,0,0,0,0,0,183146,1046,0,0,0,0,0,0
[NT-INFO] Network Stats,2,8,lo,183146,1046,0,0,0,0,0,0,183146,1046,0,0,0,0,0,0
[NT-INFO] Network Stats,2,8,ens4,64025716318,2440579,0,0,0,0,0,0,63587320558,2232824,0,0,0,0,0,0
[NT-INFO] Network Stats,0,8,ens4,46829577978,1984394,0,0,0,0,0,0,48370383099,1862703,0,0,0,0,0,0
[NT-INFO] Network Stats,3,8,ens4,64025716318,2440579,0,0,0,0,0,0,63587320558,2232824,0,0,0,0,0,0
[NT-INFO] Network Stats,0,8,lo,178916,974,0,0,0,0,0,0,178916,974,0,0,0,0,0,0
[PI-INFO] Paramount Iteration,2,9,36.896785,3.159634
[RU-INFO] Resources Stats,2,9,27.423484,9.026563,933856,0,0,0,3812,1,0,144,0,0,0,0,2144,1316
[NT-INFO] Network Stats,2,9,lo,183146,1046,0,0,0,0,0,0,183146,1046,0,0,0,0,0,0
[NT-INFO] Network Stats,2,9,ens4,64441236918,2459113,0,0,0,0,0,0,64004200672,2249319,0,0,0,0,0,0
[PI-INFO] Paramount Iteration,3,9,36.895463,3.159637
[RU-INFO] Resources Stats,3,9,27.388220,9.000242,934144,0,0,0,3814,0,0,0,0,0,0,0,2108,1825
[NT-INFO] Network Stats,3,9,lo,183146,1046,0,0,0,0,0,0,183146,1046,0,0,0,0,0,0
[NT-INFO] Network Stats,3,9,ens4,64441236918,2459113,0,0,0,0,0,0,64004200672,2249319,0,0,0,0,0,0
[PI-INFO] Paramount Iteration,5,9,37.187329,3.470006
[RU-INFO] Resources Stats,5,9,26.762954,9.978661,933952,0,0,0,3804,0,0,0,0,0,0,0,2221,1227
[NT-INFO] Network Stats,5,9,ens4,62241021855,2437778,0,0,0,0,0,0,61551052174,2214082,0,0,0,0,0,0
[NT-INFO] Network Stats,5,9,lo,181418,1039,0,0,0,0,0,0,181418,1039,0,0,0,0,0,0
[PI-INFO] Paramount Iteration,1,9,37.224176,3.515554
[RU-INFO] Resources Stats,1,9,27.619737,9.170600,933680,0,0,0,3800,1,0,16,0,0,0,0,2148,1209
[NT-INFO] Network Stats,1,9,ens4,47241045554,2002856,0,0,0,0,0,0,48785581873,1879144,0,0,0,0,0,0
[NT-INFO] Network Stats,1,9,lo,178916,974,0,0,0,0,0,0,178916,974,0,0,0,0,0,0
 T =    9     Checksum =    5.132955192805D+02    5.122454735794D+02
[PI-INFO] Paramount Iteration,7,9,37.268616,3.537771
[PI-INFO] Paramount Iteration,6,9,37.269990,3.534228
[RU-INFO] Resources Stats,6,9,27.367777,9.441163,933736,0,0,0,3808,1,0,152,0,0,0,0,2169,1936
[NT-INFO] Network Stats,6,9,ens4,45709420702,1866913,0,0,0,0,0,0,44560225261,1729208,0,0,0,0,0,0
[NT-INFO] Network Stats,6,9,lo,180792,1030,0,0,0,0,0,0,180792,1030,0,0,0,0,0,0
[PI-INFO] Paramount Iteration,4,9,37.270365,3.534244
[RU-INFO] Resources Stats,4,9,27.144281,9.665251,933760,0,0,0,3805,1,0,144,8,0,0,0,2274,1903
[NT-INFO] Network Stats,4,9,ens4,62241022091,2437781,0,0,0,0,0,0,61551455108,2214097,0,0,0,0,0,0
[RU-INFO] Resources Stats,7,9,27.264085,9.573434,933800,0,0,0,3809,0,0,0,8,0,0,0,2196,1013
[NT-INFO] Network Stats,4,9,lo,181418,1039,0,0,0,0,0,0,181418,1039,0,0,0,0,0,0
[NT-INFO] Network Stats,7,9,ens4,45709420702,1866913,0,0,0,0,0,0,44560225261,1729208,0,0,0,0,0,0
[NT-INFO] Network Stats,7,9,lo,180792,1030,0,0,0,0,0,0,180792,1030,0,0,0,0,0,0
[PI-INFO] Paramount Iteration,0,9,37.271257,3.533036
[RU-INFO] Resources Stats,0,9,26.890985,9.896682,934000,0,0,0,3817,2,0,264,0,0,0,0,2231,2020
[NT-INFO] Network Stats,0,9,ens4,47241047911,2002866,0,0,0,0,0,0,48785637687,1879151,0,0,0,0,0,0
[NT-INFO] Network Stats,0,9,lo,178916,974,0,0,0,0,0,0,178916,974,0,0,0,0,0,0
[PI-INFO] Paramount Iteration,5,10,40.024186,2.836857
[RU-INFO] Resources Stats,5,10,28.974629,10.602716,933952,0,0,0,3807,0,0,0,0,0,0,0,2221,1256
[NT-INFO] Network Stats,5,10,ens4,62648338073,2455130,0,0,0,0,0,0,61960367678,2229432,0,0,0,0,0,0
[NT-INFO] Network Stats,5,10,lo,181418,1039,0,0,0,0,0,0,181418,1039,0,0,0,0,0,0
[PI-INFO] Paramount Iteration,3,10,40.050677,3.155214
[RU-INFO] Resources Stats,3,10,29.804773,9.727197,934144,0,0,0,3814,0,0,0,0,0,0,0,2108,2007
[NT-INFO] Network Stats,3,10,lo,183146,1046,0,0,0,0,0,0,183146,1046,0,0,0,0,0,0
[NT-INFO] Network Stats,3,10,ens4,64848089958,2476571,0,0,0,0,0,0,64412928712,2264962,0,0,0,0,0,0
[PI-INFO] Paramount Iteration,7,10,40.063939,2.795323
[PI-INFO] Paramount Iteration,6,10,40.065330,2.795340
[RU-INFO] Resources Stats,6,10,29.619632,9.979832,933736,0,0,0,3808,1,0,152,0,0,0,0,2169,2124
[NT-INFO] Network Stats,6,10,ens4,46118991102,1885015,0,0,0,0,0,0,44966517465,1744504,0,0,0,0,0,0
[NT-INFO] Network Stats,6,10,lo,180792,1030,0,0,0,0,0,0,180792,1030,0,0,0,0,0,0
[RU-INFO] Resources Stats,7,10,29.518152,10.112737,933800,0,0,0,3809,0,0,0,8,0,0,0,2196,1054
[PI-INFO] Paramount Iteration,4,10,40.065724,2.795359
[NT-INFO] Network Stats,7,10,ens4,46118991102,1885015,0,0,0,0,0,0,44966046665,1744496,0,0,0,0,0,0
[RU-INFO] Resources Stats,4,10,29.389903,10.208493,933760,0,0,0,3805,1,0,144,8,0,0,0,2274,2109
[NT-INFO] Network Stats,7,10,lo,180792,1030,0,0,0,0,0,0,180792,1030,0,0,0,0,0,0
[NT-INFO] Network Stats,4,10,ens4,62648338309,2455133,0,0,0,0,0,0,61960562947,2229439,0,0,0,0,0,0
[NT-INFO] Network Stats,4,10,lo,181418,1039,0,0,0,0,0,0,181418,1039,0,0,0,0,0,0
[PI-INFO] Paramount Iteration,1,10,40.217848,2.993672
[RU-INFO] Resources Stats,1,10,29.936952,9.845735,933680,0,0,0,3800,1,0,16,0,0,0,0,2148,1246
[NT-INFO] Network Stats,1,10,ens4,47650510581,2021452,0,0,0,0,0,0,49193344823,1895125,0,0,0,0,0,0
[NT-INFO] Network Stats,1,10,lo,178916,974,0,0,0,0,0,0,178916,974,0,0,0,0,0,0
 T =   10     Checksum =    5.132410471738D+02    5.122663649603D+02
[PI-INFO] Paramount Iteration,2,10,40.255378,3.358593
[RU-INFO] Resources Stats,2,10,29.876681,9.929579,933856,0,0,0,3812,1,0,144,0,0,0,0,2144,1375
[NT-INFO] Network Stats,2,10,lo,183146,1046,0,0,0,0,0,0,183146,1046,0,0,0,0,0,0
[NT-INFO] Network Stats,2,10,ens4,64848090222,2476575,0,0,0,0,0,0,64413698118,2264979,0,0,0,0,0,0
[PI-INFO] Paramount Iteration,0,10,40.256569,2.985312
[RU-INFO] Resources Stats,0,10,29.186402,10.579071,934000,0,0,0,3817,2,0,264,0,0,0,0,2231,2258
[NT-INFO] Network Stats,0,10,ens4,47650511315,2021455,0,0,0,0,0,0,49193345021,1895128,0,0,0,0,0,0
[NT-INFO] Network Stats,0,10,lo,178916,974,0,0,0,0,0,0,178916,974,0,0,0,0,0,0
[PI-INFO] Paramount Iteration,7,11,43.211894,3.147955
[RU-INFO] Resources Stats,7,11,31.820912,10.956314,933800,0,0,0,3812,0,0,0,8,0,0,0,2196,1086
[NT-INFO] Network Stats,7,11,ens4,46533640856,1902760,0,0,0,0,0,0,45371949706,1759508,0,0,0,0,0,0
[NT-INFO] Network Stats,7,11,lo,180792,1030,0,0,0,0,0,0,180792,1030,0,0,0,0,0,0
[PI-INFO] Paramount Iteration,5,11,43.221667,3.197481
[RU-INFO] Resources Stats,5,11,31.321936,11.450471,933952,0,0,0,3807,0,0,0,0,0,0,0,2221,1333
[NT-INFO] Network Stats,5,11,ens4,63057367585,2473617,0,0,0,0,0,0,62370820824,2245086,0,0,0,0,0,0
[NT-INFO] Network Stats,5,11,lo,181418,1039,0,0,0,0,0,0,181418,1039,0,0,0,0,0,0
[PI-INFO] Paramount Iteration,1,11,43.226773,3.008925
[RU-INFO] Resources Stats,1,11,32.313965,10.472858,933680,0,0,0,3800,1,0,16,0,0,0,0,2148,1458
[NT-INFO] Network Stats,1,11,ens4,48058918327,2040072,0,0,0,0,0,0,49604058223,1911799,0,0,0,0,0,0
[NT-INFO] Network Stats,1,11,lo,178916,974,0,0,0,0,0,0,178916,974,0,0,0,0,0,0
[PI-INFO] Paramount Iteration,4,11,43.228478,3.162754
[PI-INFO] Paramount Iteration,6,11,43.228144,3.162814
[RU-INFO] Resources Stats,4,11,31.805233,10.950915,933760,0,0,0,3805,1,0,144,8,0,0,0,2274,2294
[NT-INFO] Network Stats,4,11,ens4,63057367821,2473620,0,0,0,0,0,0,62371006677,2245093,0,0,0,0,0,0
[NT-INFO] Network Stats,4,11,lo,181418,1039,0,0,0,0,0,0,181418,1039,0,0,0,0,0,0
[RU-INFO] Resources Stats,6,11,31.947425,10.810391,933736,0,0,0,3808,1,0,152,0,0,0,0,2169,2326
[NT-INFO] Network Stats,6,11,ens4,46533641120,1902764,0,0,0,0,0,0,45372217289,1759516,0,0,0,0,0,0
[NT-INFO] Network Stats,6,11,lo,180792,1030,0,0,0,0,0,0,180792,1030,0,0,0,0,0,0
 T =   11     Checksum =    5.131971141679D+02    5.122830879827D+02
[PI-INFO] Paramount Iteration,3,11,43.268545,3.217868
[PI-INFO] Paramount Iteration,2,11,43.269861,3.014483
[RU-INFO] Resources Stats,2,11,32.236693,10.581662,933856,0,0,0,3812,1,0,144,0,0,0,0,2144,1438
[NT-INFO] Network Stats,2,11,lo,183146,1046,0,0,0,0,0,0,183146,1046,0,0,0,0,0,0
[NT-INFO] Network Stats,2,11,ens4,65254814690,2495363,0,0,0,0,0,0,64825009644,2281352,0,0,0,0,0,0
[RU-INFO] Resources Stats,3,11,32.247922,10.489662,934144,0,0,0,3814,0,0,0,0,0,0,0,2108,2211
[NT-INFO] Network Stats,3,11,lo,183146,1046,0,0,0,0,0,0,183146,1046,0,0,0,0,0,0
[NT-INFO] Network Stats,3,11,ens4,65254814690,2495363,0,0,0,0,0,0,64825009644,2281352,0,0,0,0,0,0
[PI-INFO] Paramount Iteration,0,11,43.271045,3.014476
[RU-INFO] Resources Stats,0,11,31.502740,11.273823,934000,0,0,0,3817,2,0,264,0,0,0,0,2231,2317
[NT-INFO] Network Stats,0,11,ens4,48058921665,2040086,0,0,0,0,0,0,49604059015,1911811,0,0,0,0,0,0
[NT-INFO] Network Stats,0,11,lo,178916,974,0,0,0,0,0,0,178916,974,0,0,0,0,0,0
[PI-INFO] Paramount Iteration,5,12,46.277449,3.055782
[RU-INFO] Resources Stats,5,12,33.636471,12.187475,933952,0,0,0,3807,0,0,0,0,0,0,0,2221,1458
[NT-INFO] Network Stats,5,12,ens4,63469733917,2490754,0,0,0,0,0,0,62782910074,2260938,0,0,0,0,0,0
[NT-INFO] Network Stats,5,12,lo,181418,1039,0,0,0,0,0,0,181418,1039,0,0,0,0,0,0
[PI-INFO] Paramount Iteration,3,12,46.327420,3.058875
[RU-INFO] Resources Stats,3,12,34.627738,11.157738,934144,0,0,0,3814,0,0,0,0,0,0,0,2108,2360
[NT-INFO] Network Stats,3,12,lo,183146,1046,0,0,0,0,0,0,183146,1046,0,0,0,0,0,0
[NT-INFO] Network Stats,3,12,ens4,65664955662,2513999,0,0,0,0,0,0,65235238318,2297384,0,0,0,0,0,0
[PI-INFO] Paramount Iteration,2,12,46.408371,3.138510
[RU-INFO] Resources Stats,2,12,34.623859,11.329409,933856,0,0,0,3812,1,0,144,0,0,0,0,2144,1560
[NT-INFO] Network Stats,2,12,lo,183146,1046,0,0,0,0,0,0,183146,1046,0,0,0,0,0,0
[NT-INFO] Network Stats,2,12,ens4,65664955926,2514003,0,0,0,0,0,0,65235813157,2297397,0,0,0,0,0,0
[PI-INFO] Paramount Iteration,1,12,46.428640,3.201867
[RU-INFO] Resources Stats,1,12,34.740183,11.244291,933680,0,0,0,3800,1,0,16,0,0,0,0,2148,1660
[NT-INFO] Network Stats,1,12,ens4,48468625812,2057810,0,0,0,0,0,0,50017216561,1927700,0,0,0,0,0,0
[NT-INFO] Network Stats,1,12,lo,178916,974,0,0,0,0,0,0,178916,974,0,0,0,0,0,0
[PI-INFO] Paramount Iteration,7,12,46.438306,3.226412
[RU-INFO] Resources Stats,7,12,34.214334,11.787426,933800,0,0,0,3812,0,0,0,8,0,0,0,2196,1140
[PI-INFO] Paramount Iteration,6,12,46.439690,3.211546
[NT-INFO] Network Stats,7,12,ens4,46943013620,1918936,0,0,0,0,0,0,45777558942,1773735,0,0,0,0,0,0
[NT-INFO] Network Stats,7,12,lo,180792,1030,0,0,0,0,0,0,180792,1030,0,0,0,0,0,0
[PI-INFO] Paramount Iteration,4,12,46.440060,3.211582
[RU-INFO] Resources Stats,4,12,34.182868,11.782095,933760,0,0,0,3805,1,0,144,8,0,0,0,2274,2395
[NT-INFO] Network Stats,4,12,ens4,63469734153,2490757,0,0,0,0,0,0,62782977215,2260945,0,0,0,0,0,0
[RU-INFO] Resources Stats,6,12,34.351071,11.612924,933736,0,0,0,3809,1,0,152,0,0,0,0,2169,2516
[NT-INFO] Network Stats,4,12,lo,181418,1039,0,0,0,0,0,0,181418,1039,0,0,0,0,0,0
[NT-INFO] Network Stats,6,12,ens4,46943013620,1918936,0,0,0,0,0,0,45777558942,1773735,0,0,0,0,0,0
[NT-INFO] Network Stats,6,12,lo,180792,1030,0,0,0,0,0,0,180792,1030,0,0,0,0,0,0
 T =   12     Checksum =    5.131605205716D+02    5.122965869718D+02
[PI-INFO] Paramount Iteration,0,12,46.443357,3.172312
[RU-INFO] Resources Stats,0,12,33.847086,12.097954,934000,0,0,0,3818,2,0,264,0,0,0,0,2231,2376
[NT-INFO] Network Stats,0,12,ens4,48468628415,2057821,0,0,0,0,0,0,50017217089,1927708,0,0,0,0,0,0
[NT-INFO] Network Stats,0,12,lo,178916,974,0,0,0,0,0,0,178916,974,0,0,0,0,0,0
[PI-INFO] Paramount Iteration,5,13,49.788008,3.510559
[RU-INFO] Resources Stats,5,13,36.073176,13.259610,933952,0,0,0,3807,0,0,0,0,0,0,0,2221,1513
[NT-INFO] Network Stats,5,13,ens4,63883321443,2508488,0,0,0,0,0,0,63192905060,2275952,0,0,0,0,0,0
[NT-INFO] Network Stats,5,13,lo,181418,1039,0,0,0,0,0,0,181418,1039,0,0,0,0,0,0
[PI-INFO] Paramount Iteration,1,13,49.805253,3.376613
[RU-INFO] Resources Stats,1,13,37.225488,12.131360,933680,0,0,0,3801,1,0,16,0,0,0,0,2148,1876
[NT-INFO] Network Stats,1,13,ens4,48875030898,2076076,0,0,0,0,0,0,50427808549,1944248,0,0,0,0,0,0
[NT-INFO] Network Stats,1,13,lo,178916,974,0,0,0,0,0,0,178916,974,0,0,0,0,0,0
[PI-INFO] Paramount Iteration,7,13,49.822500,3.384194
[RU-INFO] Resources Stats,7,13,36.685601,12.699169,933800,0,0,0,3812,0,0,0,8,0,0,0,2196,1183
[NT-INFO] Network Stats,7,13,ens4,47352448810,1936087,0,0,0,0,0,0,46181588680,1788115,0,0,0,0,0,0
[NT-INFO] Network Stats,7,13,lo,180792,1030,0,0,0,0,0,0,180792,1030,0,0,0,0,0,0
 T =   13     Checksum =    5.131290734194D+02    5.123075927445D+02
[PI-INFO] Paramount Iteration,6,13,49.831208,3.391518
[RU-INFO] Resources Stats,6,13,36.834311,12.515271,933736,0,0,0,3809,1,0,152,0,0,0,0,2169,2720
[PI-INFO] Paramount Iteration,2,13,49.830910,3.422539
[RU-INFO] Resources Stats,2,13,37.104216,12.268136,933856,0,0,0,3813,1,0,144,0,0,0,0,2144,1627
[NT-INFO] Network Stats,2,13,lo,183146,1046,0,0,0,0,0,0,183146,1046,0,0,0,0,0,0
[NT-INFO] Network Stats,2,13,ens4,66075713068,2532178,0,0,0,0,0,0,65650668348,2313584,0,0,0,0,0,0
[PI-INFO] Paramount Iteration,3,13,49.829594,3.502174
[PI-INFO] Paramount Iteration,4,13,49.831574,3.391514
[PI-INFO] Paramount Iteration,0,13,49.832082,3.388725
[RU-INFO] Resources Stats,0,13,36.317786,13.013473,934000,0,0,0,3818,2,0,264,0,0,0,0,2231,2430
[NT-INFO] Network Stats,0,13,ens4,48875032245,2076083,0,0,0,0,0,0,50427809011,1944255,0,0,0,0,0,0
[NT-INFO] Network Stats,0,13,lo,178916,974,0,0,0,0,0,0,178916,974,0,0,0,0,0,0
[NT-INFO] Network Stats,6,13,ens4,47352449074,1936091,0,0,0,0,0,0,46181709633,1788120,0,0,0,0,0,0
[RU-INFO] Resources Stats,4,13,36.658100,12.692417,933760,0,0,0,3805,1,0,144,8,0,0,0,2274,2582
[RU-INFO] Resources Stats,3,13,37.150736,12.124848,934144,0,0,0,3814,0,0,0,0,0,0,0,2108,2573
[NT-INFO] Network Stats,6,13,lo,180792,1030,0,0,0,0,0,0,180792,1030,0,0,0,0,0,0
[NT-INFO] Network Stats,3,13,lo,183146,1046,0,0,0,0,0,0,183146,1046,0,0,0,0,0,0
[NT-INFO] Network Stats,4,13,ens4,63883321613,2508490,0,0,0,0,0,0,63192970661,2275957,0,0,0,0,0,0
[NT-INFO] Network Stats,4,13,lo,181418,1039,0,0,0,0,0,0,181418,1039,0,0,0,0,0,0
[NT-INFO] Network Stats,3,13,ens4,66075713068,2532178,0,0,0,0,0,0,65650668348,2313584,0,0,0,0,0,0
[PI-INFO] Paramount Iteration,7,14,52.907715,3.085215
[PI-INFO] Paramount Iteration,6,14,52.909087,3.077879
[RU-INFO] Resources Stats,6,14,39.206838,13.215518,933736,0,0,0,3809,1,0,152,0,0,0,0,2169,2907
[NT-INFO] Network Stats,6,14,ens4,47768345848,1953810,0,0,0,0,0,0,46586282344,1803610,0,0,0,0,0,0
[NT-INFO] Network Stats,6,14,lo,180792,1030,0,0,0,0,0,0,180792,1030,0,0,0,0,0,0
[RU-INFO] Resources Stats,7,14,39.073354,13.395093,933800,0,0,0,3813,0,0,0,8,0,0,0,2196,1234
[NT-INFO] Network Stats,7,14,ens4,47768345848,1953810,0,0,0,0,0,0,46586282344,1803610,0,0,0,0,0,0
[NT-INFO] Network Stats,7,14,lo,180792,1030,0,0,0,0,0,0,180792,1030,0,0,0,0,0,0
[PI-INFO] Paramount Iteration,5,14,53.039388,3.251380
[RU-INFO] Resources Stats,5,14,38.459214,14.122898,933952,0,0,0,3808,0,0,0,0,0,0,0,2221,1591
[NT-INFO] Network Stats,5,14,ens4,64292345865,2527439,0,0,0,0,0,0,63602860616,2292453,0,0,0,0,0,0
[NT-INFO] Network Stats,5,14,lo,181418,1039,0,0,0,0,0,0,181418,1039,0,0,0,0,0,0
[PI-INFO] Paramount Iteration,4,14,53.048935,3.217361
[RU-INFO] Resources Stats,4,14,38.962782,13.600593,933760,0,0,0,3805,1,0,144,8,0,0,0,2274,2770
[NT-INFO] Network Stats,4,14,ens4,64292345931,2527440,0,0,0,0,0,0,63602889675,2292459,0,0,0,0,0,0
[NT-INFO] Network Stats,4,14,lo,181418,1039,0,0,0,0,0,0,181418,1039,0,0,0,0,0,0
[PI-INFO] Paramount Iteration,1,14,53.080154,3.274901
[RU-INFO] Resources Stats,1,14,39.601258,13.025888,933680,0,0,0,3801,1,0,16,0,0,0,0,2148,2063
[NT-INFO] Network Stats,1,14,ens4,49283358341,2095471,0,0,0,0,0,0,50850122757,1961756,0,0,0,0,0,0
[NT-INFO] Network Stats,1,14,lo,178916,974,0,0,0,0,0,0,178916,974,0,0,0,0,0,0
 T =   14     Checksum =    5.131012720314D+02    5.123166486553D+02
[PI-INFO] Paramount Iteration,3,14,53.137240,3.307646
[PI-INFO] Paramount Iteration,2,14,53.138559,3.307649
[RU-INFO] Resources Stats,2,14,39.512736,13.164249,934124,0,0,0,3816,1,0,144,0,0,0,0,2144,1682
[NT-INFO] Network Stats,2,14,lo,183146,1046,0,0,0,0,0,0,183146,1046,0,0,0,0,0,0
[NT-INFO] Network Stats,2,14,ens4,66491236698,2551225,0,0,0,0,0,0,66060942482,2330901,0,0,0,0,0,0
[RU-INFO] Resources Stats,3,14,39.578714,12.995817,934144,0,0,0,3815,0,0,0,0,0,0,0,2108,2797
[NT-INFO] Network Stats,3,14,lo,183146,1046,0,0,0,0,0,0,183146,1046,0,0,0,0,0,0
[NT-INFO] Network Stats,3,14,ens4,66491236698,2551225,0,0,0,0,0,0,66060942482,2330901,0,0,0,0,0,0
[PI-INFO] Paramount Iteration,0,14,53.139736,3.307654
[RU-INFO] Resources Stats,0,14,38.730447,13.904262,934000,0,0,0,3818,2,0,264,0,0,0,0,2231,2526
[NT-INFO] Network Stats,0,14,ens4,49283359857,2095477,0,0,0,0,0,0,50850123219,1961763,0,0,0,0,0,0
[NT-INFO] Network Stats,0,14,lo,178916,974,0,0,0,0,0,0,178916,974,0,0,0,0,0,0
[PI-INFO] Paramount Iteration,1,15,56.167280,3.087126
[RU-INFO] Resources Stats,1,15,41.919953,13.793455,933680,0,0,0,3801,1,0,16,0,0,0,0,2148,2096
[NT-INFO] Network Stats,1,15,ens4,49694201239,2114102,0,0,0,0,0,0,51257266863,1977821,0,0,0,0,0,0
[NT-INFO] Network Stats,1,15,lo,178916,974,0,0,0,0,0,0,178916,974,0,0,0,0,0,0
[PI-INFO] Paramount Iteration,7,15,56.184030,3.276315
[RU-INFO] Resources Stats,7,15,41.476249,14.266709,933800,0,0,0,3813,0,0,0,8,0,0,0,2196,1274
[NT-INFO] Network Stats,7,15,ens4,48177521556,1970526,0,0,0,0,0,0,46996514648,1818780,0,0,0,0,0,0
[NT-INFO] Network Stats,7,15,lo,180792,1030,0,0,0,0,0,0,180792,1030,0,0,0,0,0,0
[PI-INFO] Paramount Iteration,3,15,56.190250,3.053010
[PI-INFO] Paramount Iteration,2,15,56.191565,3.053006
[RU-INFO] Resources Stats,2,15,41.847621,13.878588,934124,0,0,0,3816,1,0,144,0,0,0,0,2144,1793
[NT-INFO] Network Stats,2,15,lo,183146,1046,0,0,0,0,0,0,183146,1046,0,0,0,0,0,0
[NT-INFO] Network Stats,2,15,ens4,66901507014,2569705,0,0,0,0,0,0,66473632488,2347174,0,0,0,0,0,0
[RU-INFO] Resources Stats,3,15,41.913941,13.706847,934144,0,0,0,3815,0,0,0,0,0,0,0,2108,2930
[NT-INFO] Network Stats,3,15,lo,183146,1046,0,0,0,0,0,0,183146,1046,0,0,0,0,0,0
[NT-INFO] Network Stats,3,15,ens4,66901507014,2569705,0,0,0,0,0,0,66473632488,2347174,0,0,0,0,0,0
[PI-INFO] Paramount Iteration,5,15,56.301793,3.262405
[RU-INFO] Resources Stats,5,15,40.864014,14.957756,933952,0,0,0,3808,0,0,0,0,0,0,0,2221,1837
[NT-INFO] Network Stats,5,15,ens4,64703788914,2546785,0,0,0,0,0,0,64012388157,2308568,0,0,0,0,0,0
[NT-INFO] Network Stats,5,15,lo,181418,1039,0,0,0,0,0,0,181418,1039,0,0,0,0,0,0
 T =   15     Checksum =    5.130760908195D+02    5.123241541685D+02
[PI-INFO] Paramount Iteration,6,15,56.343315,3.434228
[RU-INFO] Resources Stats,6,15,41.668605,14.182675,933736,0,0,0,3809,1,0,152,0,0,0,0,2169,3109
[PI-INFO] Paramount Iteration,4,15,56.343673,3.294738
[RU-INFO] Resources Stats,4,15,41.409929,14.430914,933760,0,0,0,3806,1,0,144,8,0,0,0,2274,2837
[PI-INFO] Paramount Iteration,0,15,56.344259,3.204523
[NT-INFO] Network Stats,6,15,ens4,48177521820,1970530,0,0,0,0,0,0,46996580249,1818785,0,0,0,0,0,0
[NT-INFO] Network Stats,6,15,lo,180792,1030,0,0,0,0,0,0,180792,1030,0,0,0,0,0,0
[RU-INFO] Resources Stats,0,15,41.103757,14.727314,934000,0,0,0,3818,2,0,264,0,0,0,0,2231,2776
[NT-INFO] Network Stats,4,15,ens4,64703789282,2546790,0,0,0,0,0,0,64012389068,2308574,0,0,0,0,0,0
[NT-INFO] Network Stats,4,15,lo,181418,1039,0,0,0,0,0,0,181418,1039,0,0,0,0,0,0
[NT-INFO] Network Stats,0,15,ens4,49694205384,2114120,0,0,0,0,0,0,51259893921,1977882,0,0,0,0,0,0
[NT-INFO] Network Stats,0,15,lo,178916,974,0,0,0,0,0,0,178916,974,0,0,0,0,0,0
[PI-INFO] Paramount Iteration,7,16,59.499560,3.315530
[RU-INFO] Resources Stats,7,16,43.894756,15.162188,933800,0,0,0,3816,0,0,0,8,0,0,0,2196,1311
[NT-INFO] Network Stats,7,16,ens4,48589442630,1988241,0,0,0,0,0,0,47405468156,1834783,0,0,0,0,0,0
[NT-INFO] Network Stats,7,16,lo,180792,1030,0,0,0,0,0,0,180792,1030,0,0,0,0,0,0
[PI-INFO] Paramount Iteration,1,16,59.513251,3.345971
[RU-INFO] Resources Stats,1,16,44.419905,14.637424,933680,0,0,0,3801,1,0,16,0,0,0,0,2148,2149
[NT-INFO] Network Stats,1,16,ens4,50108489788,2134753,0,0,0,0,0,0,51671214185,1995696,0,0,0,0,0,0
[NT-INFO] Network Stats,1,16,lo,178916,974,0,0,0,0,0,0,178916,974,0,0,0,0,0,0
[PI-INFO] Paramount Iteration,3,16,59.531537,3.341287
[PI-INFO] Paramount Iteration,2,16,59.532858,3.341293
[RU-INFO] Resources Stats,2,16,44.292874,14.770954,934124,0,0,0,3816,1,0,144,0,0,0,0,2144,1907
[NT-INFO] Network Stats,2,16,lo,183146,1046,0,0,0,0,0,0,183146,1046,0,0,0,0,0,0
[NT-INFO] Network Stats,2,16,ens4,67311063200,2588336,0,0,0,0,0,0,66882899850,2363267,0,0,0,0,0,0
[RU-INFO] Resources Stats,3,16,44.333445,14.620689,934144,0,0,0,3815,0,0,0,0,0,0,0,2108,3077
[NT-INFO] Network Stats,3,16,lo,183146,1046,0,0,0,0,0,0,183146,1046,0,0,0,0,0,0
[NT-INFO] Network Stats,3,16,ens4,67311063200,2588336,0,0,0,0,0,0,66882899850,2363267,0,0,0,0,0,0
[PI-INFO] Paramount Iteration,5,16,59.854121,3.552328
[RU-INFO] Resources Stats,5,16,43.344112,16.024211,933952,0,0,0,3808,0,0,0,0,0,0,0,2221,2065
[NT-INFO] Network Stats,5,16,ens4,65115768008,2565377,0,0,0,0,0,0,64426671841,2325343,0,0,0,0,0,0
[NT-INFO] Network Stats,5,16,lo,181418,1039,0,0,0,0,0,0,181418,1039,0,0,0,0,0,0
 T =   16     Checksum =    5.130528295923D+02    5.123304037599D+02
[PI-INFO] Paramount Iteration,6,16,59.892877,3.549562
[PI-INFO] Paramount Iteration,4,16,59.893251,3.549578
[RU-INFO] Resources Stats,6,16,44.157394,15.237438,933736,0,0,0,3809,1,0,152,0,0,0,0,2169,3325
[NT-INFO] Network Stats,6,16,ens4,48589442894,1988245,0,0,0,0,0,0,47405653943,1834789,0,0,0,0,0,0
[RU-INFO] Resources Stats,4,16,43.905878,15.482788,933760,0,0,0,3806,1,0,144,8,0,0,0,2274,2872
[NT-INFO] Network Stats,6,16,lo,180792,1030,0,0,0,0,0,0,180792,1030,0,0,0,0,0,0
[NT-INFO] Network Stats,4,16,ens4,65115768376,2565382,0,0,0,0,0,0,64426932242,2325353,0,0,0,0,0,0
[NT-INFO] Network Stats,4,16,lo,181418,1039,0,0,0,0,0,0,181418,1039,0,0,0,0,0,0
[PI-INFO] Paramount Iteration,0,16,59.893864,3.549605
[RU-INFO] Resources Stats,0,16,43.550837,15.822857,934000,0,0,0,3818,2,0,264,0,0,0,0,2231,3015
[NT-INFO] Network Stats,0,16,ens4,50108494131,2134772,0,0,0,0,0,0,51674175597,1995804,0,0,0,0,0,0
[NT-INFO] Network Stats,0,16,lo,178916,974,0,0,0,0,0,0,178916,974,0,0,0,0,0,0
[PI-INFO] Paramount Iteration,5,17,63.003811,3.149690
[RU-INFO] Resources Stats,5,17,45.655968,16.860171,933952,0,0,0,3808,0,0,0,0,0,0,0,2221,2131
[NT-INFO] Network Stats,5,17,ens4,65524111360,2583792,0,0,0,0,0,0,64839015991,2341465,0,0,0,0,0,0
[NT-INFO] Network Stats,5,17,lo,181418,1039,0,0,0,0,0,0,181418,1039,0,0,0,0,0,0
[PI-INFO] Paramount Iteration,1,17,63.007003,3.493752
[RU-INFO] Resources Stats,1,17,46.958722,15.588952,933680,0,0,0,3802,1,0,16,0,0,0,0,2148,2320
[NT-INFO] Network Stats,1,17,ens4,50517592928,2152813,0,0,0,0,0,0,52083234923,2012155,0,0,0,0,0,0
[NT-INFO] Network Stats,1,17,lo,178916,974,0,0,0,0,0,0,178916,974,0,0,0,0,0,0
[PI-INFO] Paramount Iteration,3,17,63.026903,3.495366
[PI-INFO] Paramount Iteration,2,17,63.028222,3.495364
[RU-INFO] Resources Stats,2,17,46.795871,15.758527,934124,0,0,0,3817,1,0,144,0,0,0,0,2144,2060
[NT-INFO] Network Stats,2,17,lo,183146,1046,0,0,0,0,0,0,183146,1046,0,0,0,0,0,0
[NT-INFO] Network Stats,2,17,ens4,67721192588,2606316,0,0,0,0,0,0,67291972708,2378809,0,0,0,0,0,0
[RU-INFO] Resources Stats,3,17,46.927404,15.514644,934144,0,0,0,3815,0,0,0,0,0,0,0,2108,3189
[NT-INFO] Network Stats,3,17,lo,183146,1046,0,0,0,0,0,0,183146,1046,0,0,0,0,0,0
[NT-INFO] Network Stats,3,17,ens4,67721192588,2606316,0,0,0,0,0,0,67291972708,2378809,0,0,0,0,0,0
 T =   17     Checksum =    5.130310107773D+02    5.123356167976D+02
[PI-INFO] Paramount Iteration,6,17,63.046058,3.153181
[RU-INFO] Resources Stats,6,17,46.510995,16.032623,933736,0,0,0,3810,1,0,152,0,0,0,0,2169,3514
[PI-INFO] Paramount Iteration,7,17,63.044681,3.545121
[NT-INFO] Network Stats,6,17,ens4,49000806562,2005799,0,0,0,0,0,0,47813407546,1849761,0,0,0,0,0,0
[NT-INFO] Network Stats,6,17,lo,180792,1030,0,0,0,0,0,0,180792,1030,0,0,0,0,0,0
[PI-INFO] Paramount Iteration,4,17,63.046431,3.153180
[PI-INFO] Paramount Iteration,0,17,63.046990,3.153126
[RU-INFO] Resources Stats,7,17,46.446445,16.154068,933800,0,0,0,3816,0,0,0,8,0,0,0,2196,1361
[RU-INFO] Resources Stats,4,17,46.249913,16.286813,933760,0,0,0,3806,1,0,144,8,0,0,0,2274,3067
[NT-INFO] Network Stats,7,17,ens4,49000806562,2005799,0,0,0,0,0,0,47813407546,1849761,0,0,0,0,0,0
[NT-INFO] Network Stats,4,17,ens4,65524111728,2583797,0,0,0,0,0,0,64839081592,2341470,0,0,0,0,0,0
[NT-INFO] Network Stats,7,17,lo,180792,1030,0,0,0,0,0,0,180792,1030,0,0,0,0,0,0
[NT-INFO] Network Stats,4,17,lo,181418,1039,0,0,0,0,0,0,181418,1039,0,0,0,0,0,0
[RU-INFO] Resources Stats,0,17,45.953375,16.568958,934000,0,0,0,3819,2,0,264,0,0,0,0,2231,3120
[NT-INFO] Network Stats,0,17,ens4,50517595385,2152823,0,0,0,0,0,0,52083235517,2012164,0,0,0,0,0,0
[NT-INFO] Network Stats,0,17,lo,178916,974,0,0,0,0,0,0,178916,974,0,0,0,0,0,0
[PI-INFO] Paramount Iteration,5,18,66.240406,3.236595
[RU-INFO] Resources Stats,5,18,48.061725,17.687386,933952,0,0,0,3809,0,0,0,0,0,0,0,2221,2281
[NT-INFO] Network Stats,5,18,ens4,65933451194,2601262,0,0,0,0,0,0,65254883853,2357051,0,0,0,0,0,0
[NT-INFO] Network Stats,5,18,lo,181418,1039,0,0,0,0,0,0,181418,1039,0,0,0,0,0,0
[PI-INFO] Paramount Iteration,6,18,66.253424,3.207366
[PI-INFO] Paramount Iteration,7,18,66.252063,3.207382
[RU-INFO] Resources Stats,7,18,48.824599,16.981425,933800,0,0,0,3817,0,0,0,8,0,0,0,2196,1403
[NT-INFO] Network Stats,7,18,ens4,49413519920,2023860,0,0,0,0,0,0,48223611102,1865322,0,0,0,0,0,0
[NT-INFO] Network Stats,7,18,lo,180792,1030,0,0,0,0,0,0,180792,1030,0,0,0,0,0,0
[RU-INFO] Resources Stats,6,18,48.938838,16.807237,933736,0,0,0,3810,1,0,152,0,0,0,0,2169,3707
[PI-INFO] Paramount Iteration,4,18,66.253849,3.207418
[NT-INFO] Network Stats,6,18,ens4,49413519920,2023860,0,0,0,0,0,0,48223611102,1865322,0,0,0,0,0,0
[NT-INFO] Network Stats,6,18,lo,180792,1030,0,0,0,0,0,0,180792,1030,0,0,0,0,0,0
[RU-INFO] Resources Stats,4,18,48.606495,17.135009,933760,0,0,0,3806,1,0,144,8,0,0,0,2274,3148
[NT-INFO] Network Stats,4,18,ens4,65933451562,2601267,0,0,0,0,0,0,65256301552,2357077,0,0,0,0,0,0
[NT-INFO] Network Stats,4,18,lo,181418,1039,0,0,0,0,0,0,181418,1039,0,0,0,0,0,0
[PI-INFO] Paramount Iteration,1,18,66.281981,3.274978
[RU-INFO] Resources Stats,1,18,49.354751,16.464908,933680,0,0,0,3802,1,0,16,0,0,0,0,2148,2417
[NT-INFO] Network Stats,1,18,ens4,50932398681,2171955,0,0,0,0,0,0,52496291801,2029716,0,0,0,0,0,0
[NT-INFO] Network Stats,1,18,lo,178916,974,0,0,0,0,0,0,178916,974,0,0,0,0,0,0
[PI-INFO] Paramount Iteration,3,18,66.292148,3.265245
[RU-INFO] Resources Stats,3,18,49.388469,16.311018,934144,0,0,0,3815,0,0,0,0,0,0,0,2108,3333
[NT-INFO] Network Stats,3,18,lo,183146,1046,0,0,0,0,0,0,183146,1046,0,0,0,0,0,0
[NT-INFO] Network Stats,3,18,ens4,68134034250,2625169,0,0,0,0,0,0,67700491322,2393894,0,0,0,0,0,0
 T =   18     Checksum =    5.130103090133D+02    5.123399592211D+02
[PI-INFO] Paramount Iteration,2,18,66.301796,3.273574
[RU-INFO] Resources Stats,2,18,49.174302,16.649944,934124,0,0,0,3817,1,0,144,0,0,0,0,2144,2169
[NT-INFO] Network Stats,2,18,lo,183146,1046,0,0,0,0,0,0,183146,1046,0,0,0,0,0,0
[NT-INFO] Network Stats,2,18,ens4,68134034514,2625173,0,0,0,0,0,0,67700871593,2393903,0,0,0,0,0,0
[PI-INFO] Paramount Iteration,0,18,66.302958,3.255968
[RU-INFO] Resources Stats,0,18,48.358378,17.412214,934000,0,0,0,3819,2,0,264,0,0,0,0,2231,3324
[NT-INFO] Network Stats,0,18,ens4,50932400653,2171964,0,0,0,0,0,0,52496292329,2029724,0,0,0,0,0,0
[NT-INFO] Network Stats,0,18,lo,178916,974,0,0,0,0,0,0,178916,974,0,0,0,0,0,0
[PI-INFO] Paramount Iteration,3,19,69.341399,3.049251
[RU-INFO] Resources Stats,3,19,51.670451,17.069025,934144,0,0,0,3816,0,0,0,0,0,0,0,2108,3535
[PI-INFO] Paramount Iteration,2,19,69.342734,3.040938
[NT-INFO] Network Stats,3,19,lo,183146,1046,0,0,0,0,0,0,183146,1046,0,0,0,0,0,0
[NT-INFO] Network Stats,3,19,ens4,68545126416,2643472,0,0,0,0,0,0,68110673572,2411368,0,0,0,0,0,0
[RU-INFO] Resources Stats,2,19,51.581774,17.280534,934124,0,0,0,3817,1,0,144,0,0,0,0,2144,2225
[NT-INFO] Network Stats,2,19,lo,183146,1046,0,0,0,0,0,0,183146,1046,0,0,0,0,0,0
[NT-INFO] Network Stats,2,19,ens4,68545126416,2643472,0,0,0,0,0,0,68110673572,2411368,0,0,0,0,0,0
[PI-INFO] Paramount Iteration,5,19,69.462778,3.222372
[RU-INFO] Resources Stats,5,19,50.406464,18.562177,933952,0,0,0,3809,0,0,0,0,0,0,0,2221,2388
[NT-INFO] Network Stats,5,19,ens4,66340560058,2621119,0,0,0,0,0,0,65668065125,2372828,0,0,0,0,0,0
[NT-INFO] Network Stats,5,19,lo,181418,1039,0,0,0,0,0,0,181418,1039,0,0,0,0,0,0
[PI-INFO] Paramount Iteration,1,19,69.471443,3.189462
[RU-INFO] Resources Stats,1,19,51.736510,17.268154,933680,0,0,0,3802,1,0,16,0,0,0,0,2148,2641
[NT-INFO] Network Stats,1,19,ens4,51339557380,2190932,0,0,0,0,0,0,52906834419,2046255,0,0,0,0,0,0
[NT-INFO] Network Stats,1,19,lo,178916,974,0,0,0,0,0,0,178916,974,0,0,0,0,0,0
[PI-INFO] Paramount Iteration,7,19,69.521590,3.269527
[RU-INFO] Resources Stats,7,19,51.298332,17.776649,933800,0,0,0,3817,0,0,0,8,0,0,0,2196,1428
[NT-INFO] Network Stats,7,19,ens4,49825805296,2042010,0,0,0,0,0,0,48628236298,1880676,0,0,0,0,0,0
[NT-INFO] Network Stats,7,19,lo,180792,1030,0,0,0,0,0,0,180792,1030,0,0,0,0,0,0
 T =   19     Checksum =    5.129905029333D+02    5.123435588985D+02
[PI-INFO] Paramount Iteration,6,19,69.525759,3.272335
[RU-INFO] Resources Stats,6,19,51.369742,17.642860,933736,0,0,0,3810,1,0,152,0,0,0,0,2169,3931
[PI-INFO] Paramount Iteration,4,19,69.526121,3.272272
[NT-INFO] Network Stats,6,19,ens4,49825805560,2042014,0,0,0,0,0,0,48628372419,1880683,0,0,0,0,0,0
[NT-INFO] Network Stats,6,19,lo,180792,1030,0,0,0,0,0,0,180792,1030,0,0,0,0,0,0
[RU-INFO] Resources Stats,4,19,51.031997,17.975545,933760,0,0,0,3807,1,0,144,8,0,0,0,2274,3332
[NT-INFO] Network Stats,4,19,ens4,66340560426,2621124,0,0,0,0,0,0,65668065958,2372833,0,0,0,0,0,0
[NT-INFO] Network Stats,4,19,lo,181418,1039,0,0,0,0,0,0,181418,1039,0,0,0,0,0,0
[PI-INFO] Paramount Iteration,0,19,69.526655,3.223697
[RU-INFO] Resources Stats,0,19,50.763000,18.228459,934000,0,0,0,3819,2,0,264,0,0,0,0,2231,3387
[NT-INFO] Network Stats,0,19,ens4,51339558623,2190938,0,0,0,0,0,0,52906890233,2046262,0,0,0,0,0,0
[NT-INFO] Network Stats,0,19,lo,178916,974,0,0,0,0,0,0,178916,974,0,0,0,0,0,0
[PI-INFO] Paramount Iteration,5,20,72.662646,3.199868
[RU-INFO] Resources Stats,5,20,52.742800,19.422301,933952,0,0,0,3812,0,0,0,0,0,0,0,2221,2489
[NT-INFO] Network Stats,5,20,ens4,66753300064,2639195,0,0,0,0,0,0,66078344047,2388636,0,0,0,0,0,0
[NT-INFO] Network Stats,5,20,lo,181418,1039,0,0,0,0,0,0,181418,1039,0,0,0,0,0,0
[PI-INFO] PI avg,5,3.246494,20
[PI-INFO] Beta,5,1.119104
[PI-INFO] Paramount Iteration,3,20,72.746222,3.404823
[RU-INFO] Resources Stats,3,20,54.114129,18.022066,934144,0,0,0,3816,0,0,0,0,0,0,0,2108,3730
[NT-INFO] Network Stats,3,20,lo,183146,1046,0,0,0,0,0,0,183146,1046,0,0,0,0,0,0
[NT-INFO] Network Stats,3,20,ens4,68954371712,2662938,0,0,0,0,0,0,68521184550,2428218,0,0,0,0,0,0
[PI-INFO] PI avg,3,3.249123,20
[PI-INFO] Beta,3,1.119485
[PI-INFO] Paramount Iteration,2,20,72.761920,3.419186
[RU-INFO] Resources Stats,2,20,54.096374,18.181370,934124,0,0,0,3817,1,0,144,0,0,0,0,2144,2324
[NT-INFO] Network Stats,2,20,lo,183270,1047,0,0,0,0,0,0,183270,1047,0,0,0,0,0,0
[NT-INFO] Network Stats,2,20,ens4,68954372108,2662944,0,0,0,0,0,0,68521315400,2428226,0,0,0,0,0,0
[PI-INFO] PI avg,2,3.251029,20
[PI-INFO] Beta,2,1.119063
[PI-INFO] Paramount Iteration,7,20,72.787861,3.266271
[RU-INFO] Resources Stats,7,20,53.714888,18.624840,933800,0,0,0,3817,0,0,0,8,0,0,0,2196,1468
[PI-INFO] Paramount Iteration,6,20,72.789223,3.263464
[PI-INFO] Paramount Iteration,4,20,72.789604,3.263483
[RU-INFO] Resources Stats,4,20,53.367671,18.899384,933760,0,0,0,3807,1,0,144,8,0,0,0,2274,3491
[NT-INFO] Network Stats,4,20,ens4,66753300564,2639202,0,0,0,0,0,0,66078353743,2388643,0,0,0,0,0,0
[NT-INFO] Network Stats,4,20,lo,181594,1041,0,0,0,0,0,0,181594,1041,0,0,0,0,0,0
[NT-INFO] Network Stats,7,20,ens4,50234316526,2059195,0,0,0,0,0,0,49035001012,1895546,0,0,0,0,0,0
[NT-INFO] Network Stats,7,20,lo,180792,1030,0,0,0,0,0,0,180792,1030,0,0,0,0,0,0
[PI-INFO] PI avg,7,3.252514,20
[PI-INFO] Beta,7,1.118952
[RU-INFO] Resources Stats,6,20,53.781983,18.488306,933736,0,0,0,3810,1,0,152,0,0,0,0,2169,4136
[PI-INFO] PI avg,4,3.252537,20
[PI-INFO] Beta,4,1.118969
[NT-INFO] Network Stats,6,20,ens4,50234316526,2059195,0,0,0,0,0,0,49035001012,1895546,0,0,0,0,0,0
[NT-INFO] Network Stats,6,20,lo,180792,1030,0,0,0,0,0,0,180792,1030,0,0,0,0,0,0
[PI-INFO] PI avg,6,3.252540,20
[PI-INFO] Beta,6,1.118968
[PI-INFO] Paramount Iteration,1,20,72.795930,3.324487
[RU-INFO] Resources Stats,1,20,54.218697,18.108877,933680,0,0,0,3802,1,0,16,0,0,0,0,2148,2672
[NT-INFO] Network Stats,1,20,ens4,51748787273,2210008,0,0,0,0,0,0,53318545609,2063870,0,0,0,0,0,0
[NT-INFO] Network Stats,1,20,lo,178916,974,0,0,0,0,0,0,178916,974,0,0,0,0,0,0
[PI-INFO] PI avg,1,3.253438,20
[PI-INFO] Beta,1,1.118760
 T =   20     Checksum =    5.129714421109D+02    5.123465164008D+02
[PI-INFO] Paramount Iteration,0,20,72.802955,3.276300
[RU-INFO] Resources Stats,0,20,53.096468,19.163506,934000,0,0,0,3819,2,0,264,0,0,0,0,2231,3656
[NT-INFO] Network Stats,0,20,ens4,51748787273,2210008,0,0,0,0,0,0,53318545609,2063870,0,0,0,0,0,0
[NT-INFO] Network Stats,0,20,lo,179040,975,0,0,0,0,0,0,179040,975,0,0,0,0,0,0
 Result verification successful


 FT Benchmark Completed.
 Class           =                        C
 Size            =            512x 512x 512
 Iterations      =                       20
 Time in seconds =                    68.68
 Total processes =                        8
 Active procs    =                        8
 Mop/s total     =                  5771.83
 Mop/s/process   =                   721.48
 Operation type  =           floating point
 Verification    =               SUCCESSFUL
 Version         =                      3.4
 Compile date    =              24 May 2021

 Compile options:
    MPIFC        = mpif90
    FLINK        = $(MPIFC)
    FMPI_LIB     = (none)
    FMPI_INC     = (none)
    FFLAGS       = -O3
    FLINKFLAGS   = $(FFLAGS) -O ../../utils/obj/*.o
    RAND         = randi8


 Please send feedbacks and/or the results of this run to:

 NPB Development Team 
 Internet: npb@nas.nasa.gov


[PI-INFO] PI avg,0,3.253469,20
[PI-INFO] Beta,0,1.118858
[PI-INFO] Total time,72.803376
